AA,60,0,40,637216,2010-11-24,true,10:39:12.000,26333,
TR,60,0,106,500526,2010-11-24,true,10:44:01.000,4590,
AI,60,0,10,781182,2010-11-24,true,10:43:56.000,909,
AA,60,0,3180,637365,2010-11-24,true,10:41:05.000,2207,
AI,60,0,10,781186,2010-11-24,true,10:43:59.000,484,
IM,60,0,429,370755,2010-11-24,true,10:46:03.000,623,
TR,60,0,2146,500528,2010-11-24,true,10:44:08.000,429,
AP,60,0,241,775897,2010-11-24,true,10:44:02.000,410,
AA,60,0,5984,637382,2010-11-24,true,10:44:03.000,5498,
AA,60,0,5984,637381,2010-11-24,true,10:44:03.000,4578,
AA,60,0,5984,637383,2010-11-24,true,10:44:03.000,4942,
TR,60,0,1067,500530,2010-11-24,true,10:44:09.000,497,
AA,60,0,3813,638095,2010-11-24,true,10:50:33.000,4402,
IT,60,0,644,193201,2010-11-24,true,10:53:08.000,6125,
IT,60,0,15,193203,2010-11-24,true,10:53:12.000,2201,
AP,17,0,14,775951,2010-11-24,true,10:53:30.000,540,
TR,60,0,1412,500806,2010-11-24,true,10:53:37.000,336,
TR,60,0,3405,500807,2010-11-24,true,10:53:37.000,651,
IT,60,0,644,193206,2010-11-24,true,10:53:20.000,4502,
IT,60,0,32,193543,2010-11-24,true,11:01:46.000,7180,
AP,60,0,9711,776007,2010-11-24,true,11:02:09.000,603,
AI,60,0,10,781447,2010-11-24,true,11:02:10.000,570,
TR,60,0,4084,501085,2010-11-24,true,11:02:16.000,457,
AA,60,0,720,638685,2010-11-24,true,10:59:21.000,4478,
IT,60,0,41,193549,2010-11-24,true,11:01:53.000,9498,
TR,60,0,228,501087,2010-11-24,true,11:02:19.000,487,
IT,60,0,38,193555,2010-11-24,true,11:01:58.000,1628,
AA,60,0,5984,638690,2010-11-24,true,11:02:17.000,5610,
TR,60,0,3988,501365,2010-11-24,true,11:10:31.000,450,
TR,60,0,227,501369,2010-11-24,true,11:10:35.000,374,
TR,60,0,285,501370,2010-11-24,true,11:10:36.000,396,
IT,60,0,21,193893,2010-11-24,true,11:10:12.000,9327,
IT,60,0,36,193895,2010-11-24,true,11:10:16.000,5392,
IT,60,0,21,193899,2010-11-24,true,11:10:17.000,8464,
IT,60,0,37,193904,2010-11-24,true,11:10:22.000,13334,
AP,17,0,17,776078,2010-11-24,true,11:10:41.000,475,
TR,60,0,3000,501376,2010-11-24,true,11:10:48.000,466,
AA,60,0,5978,639317,2010-11-24,true,11:07:52.000,3987,
AA,60,0,2401,639316,2010-11-24,true,11:07:52.000,1960,
AA,60,0,6911,639354,2010-11-24,true,11:11:03.000,955,
TR,60,0,3795,501385,2010-11-24,true,11:11:13.000,426,
TR,60,0,3988,501387,2010-11-24,true,11:11:21.000,693,
AA,60,0,6910,639382,2010-11-24,true,11:11:27.000,909, ADV Inconsistencia [PrestadorEnPeríodoDePrueba]
TR,60,0,3834,501395,2010-11-24,true,11:11:33.000,6907,
TR,60,0,175,501397,2010-11-24,true,11:11:35.000,445,
TR,60,0,355,501393,2010-11-24,true,11:11:31.000,439,
IT,60,0,1157,193934,2010-11-24,true,11:11:13.000,859,
AA,60,0,4981,639405,2010-11-24,true,11:08:56.000,18510,
IT,60,0,43,193948,2010-11-24,true,11:11:29.000,7873,
IT,60,0,21,193952,2010-11-24,true,11:11:33.000,9889,
IM,19,0,37,370893,2010-11-24,true,11:13:52.000,388,
IM,60,0,478,370896,2010-11-24,true,11:13:54.000,527,
AA,60,0,4981,639417,2010-11-24,true,11:09:03.000,16676,
TR,60,0,997,501407,2010-11-24,true,11:12:00.000,435,
AA,60,0,720,639420,2010-11-24,true,11:09:04.000,4009,
IT,60,0,327,193957,2010-11-24,true,11:11:40.000,4800,
TR,60,0,937,501411,2010-11-24,true,11:12:05.000,481,
IT,60,0,53,193967,2010-11-24,true,11:11:51.000,2468,
IT,60,0,32,193971,2010-11-24,true,11:11:53.000,6197,
AA,60,0,5555,639440,2010-11-24,true,11:09:24.000,519,
IT,60,0,32,193974,2010-11-24,true,11:12:00.000,5872,
IT,60,0,1157,193975,2010-11-24,true,11:12:01.000,770,
TR,60,0,478,501417,2010-11-24,true,11:12:26.000,520,
TR,60,0,271,501419,2010-11-24,true,11:12:30.000,333,
TR,60,0,16,501420,2010-11-24,true,11:12:33.000,370,
IT,60,0,1157,193981,2010-11-24,true,11:12:10.000,594,
IT,60,0,32,193982,2010-11-24,true,11:12:10.000,5520,
AA,23,0,780,639452,2010-11-24,true,11:09:37.000,620,
TR,60,0,3959,501422,2010-11-24,true,11:12:41.000,400,
TR,60,0,2812,501423,2010-11-24,true,11:12:42.000,909,
TR,60,0,146,501424,2010-11-24,true,11:12:44.000,487,
AP,33,0,9984,776092,2010-11-24,true,11:12:39.000,384,
IM,60,0,549,370903,2010-11-24,true,11:14:45.000,355,
AI,60,0,11,781586,2010-11-24,false,11:09:56.000,362, INC: Inconsistencia [SocioNoExistente | false]null
IT,60,0,32,193998,2010-11-24,true,11:12:30.000,5487,
IT,60,0,155,194001,2010-11-24,true,11:12:31.000,839,
TR,60,0,3587,501436,2010-11-24,true,11:13:04.000,6524,
IT,60,0,53,194012,2010-11-24,true,11:12:43.000,2799,
IM,60,0,478,370907,2010-11-24,true,11:15:04.000,560,
TR,60,0,841,501439,2010-11-24,true,11:13:08.000,704,
AI,60,0,11,781592,2010-11-24,true,11:13:03.000,408,
IT,60,0,32,194017,2010-11-24,true,11:12:47.000,8129,
IT,60,0,24,194019,2010-11-24,true,11:12:49.000,779,
TR,60,0,2690,501441,2010-11-24,false,11:13:13.000,452, INC: Inconsistencia [SocioNoExistente | false]null
AA,60,0,820,639505,2010-11-24,true,11:10:19.000,13256,
IT,60,0,21,194020,2010-11-24,true,11:12:52.000,9151,
AA,60,0,2694,639518,2010-11-24,true,11:10:31.000,938,
TR,60,0,525,501450,2010-11-24,true,11:13:29.000,498,
AI,60,0,11,781596,2010-11-24,true,11:10:33.000,429,
TR,60,0,663,501451,2010-11-24,true,11:13:31.000,424,
AI,60,0,11,781602,2010-11-24,true,11:10:44.000,488,
TR,60,0,841,501455,2010-11-24,true,11:13:41.000,524,
TR,60,0,3968,501456,2010-11-24,true,11:13:44.000,392,
IT,60,0,53,194045,2010-11-24,true,11:13:23.000,2476,
AA,60,0,6910,639549,2010-11-24,true,11:13:42.000,987, ADV Inconsistencia [PrestadorEnPeríodoDePrueba]
IT,60,0,43,194048,2010-11-24,true,11:13:26.000,7442,
IT,60,0,13,194051,2010-11-24,true,11:13:31.000,2413,
AI,60,0,11,781604,2010-11-24,true,11:11:05.000,375,
IT,60,0,51,194056,2010-11-24,true,11:13:39.000,627,
AA,60,0,5984,639571,2010-11-24,true,11:14:00.000,4734,
AI,60,0,11,781607,2010-11-24,true,11:11:10.000,375,
IT,60,0,32,194062,2010-11-24,true,11:13:43.000,6112,
TR,60,0,2769,501463,2010-11-24,true,11:14:10.000,489,
AA,60,0,3813,639578,2010-11-24,true,11:11:15.000,3715,
TR,60,0,2426,501464,2010-11-24,true,11:14:13.000,451,
AI,60,0,11,781610,2010-11-24,true,11:14:07.000,378,
TR,60,0,158,501467,2010-11-24,true,11:14:17.000,396,
IT,60,0,644,194068,2010-11-24,true,11:13:54.000,4261,
IT,60,0,32,194069,2010-11-24,true,11:13:55.000,5633,
IT,60,0,1157,194074,2010-11-24,true,11:13:58.000,911,
TR,60,0,3916,501472,2010-11-24,true,11:14:23.000,418,
AI,60,0,10,781614,2010-11-24,true,11:14:19.000,475,
TR,60,0,1381,501469,2010-11-24,true,11:14:19.000,462,
IT,60,0,327,194075,2010-11-24,true,11:14:02.000,5265,
AA,60,0,5984,639605,2010-11-24,true,11:14:26.000,5161,
AI,60,0,11,781617,2010-11-24,true,11:11:37.000,397,
TR,60,0,3992,501477,2010-11-24,true,11:14:34.000,922,
IT,11,0,526,194082,2010-11-24,true,11:14:15.000,460,
TR,60,0,2903,501481,2010-11-24,true,11:14:41.000,428,
IT,60,0,53,194083,2010-11-24,true,11:14:19.000,2585,
TR,60,0,3992,501491,2010-11-24,true,11:15:07.000,686,
TR,60,0,1756,501493,2010-11-24,true,11:15:11.000,366,
IT,60,0,37,194110,2010-11-24,true,11:14:48.000,10942,
IT,60,0,1157,194112,2010-11-24,true,11:14:49.000,827,
IT,60,0,38,194116,2010-11-24,true,11:14:56.000,1761,
IT,60,0,32,194117,2010-11-24,true,11:14:56.000,7052,
AI,60,0,11,781628,2010-11-24,true,11:12:27.000,339,
AA,60,0,5432,639662,2010-11-24,true,11:12:30.000,4117,
AI,60,0,11,781630,2010-11-24,true,11:15:30.000,421,
AP,17,1,16,776108,2010-11-24,true,11:15:33.000,450,
TR,60,0,4192,501502,2010-11-24,true,11:15:40.000,395,
AI,60,0,11,781633,2010-11-24,true,11:12:48.000,508,
AA,60,0,4981,639686,2010-11-24,true,11:12:52.000,17926,
AI,60,0,11,781636,2010-11-24,true,11:12:55.000,599,
TR,60,0,276,501509,2010-11-24,true,11:16:00.000,411,
IT,60,0,21,194144,2010-11-24,true,11:15:42.000,10626,
IM,60,0,33,370924,2010-11-24,true,11:18:03.000,882,
AA,60,0,6031,639709,2010-11-24,true,11:13:18.000,1165,
IT,60,0,13,194155,2010-11-24,true,11:15:54.000,2719,
AI,60,0,11,781643,2010-11-24,true,11:13:23.000,581,
TR,60,0,64,501515,2010-11-24,true,11:16:19.000,693,
TR,60,0,3402,501517,2010-11-24,true,11:16:20.000,540,
TR,60,0,2683,501520,2010-11-24,true,11:16:22.000,483,
IM,60,0,739,370925,2010-11-24,true,11:18:23.000,1344,
AI,60,0,11,781647,2010-11-24,true,11:13:37.000,1482,
IT,60,0,40,194172,2010-11-24,true,11:16:13.000,2493,
IT,60,0,38,194171,2010-11-24,true,11:16:13.000,1443,
AA,60,0,5984,639731,2010-11-24,true,11:16:33.000,5328,
TR,60,0,276,501527,2010-11-24,true,11:16:40.000,1121,
IT,60,0,821,194173,2010-11-24,true,11:16:18.000,1256,
TR,60,0,124,501530,2010-11-24,true,11:16:44.000,470,
IT,60,0,32,194178,2010-11-24,true,11:16:21.000,6887,
TR,60,0,112,501532,2010-11-24,true,11:16:45.000,537,
AI,60,0,11,781650,2010-11-24,true,11:14:00.000,419,
AA,60,0,3820,639750,2010-11-24,true,11:14:01.000,947,
AP,24,0,1319,776112,2010-11-24,true,11:16:51.000,373,
IT,60,0,32,194186,2010-11-24,true,11:16:34.000,6265,
IM,60,0,505,370926,2010-11-24,true,11:18:56.000,488,
IM,60,0,478,370927,2010-11-24,true,11:19:01.000,567,
AA,60,0,2401,639776,2010-11-24,true,11:14:28.000,1728,
TR,60,0,3914,501554,2010-11-24,true,11:17:34.000,815,
IT,60,0,821,194220,2010-11-24,true,11:17:16.000,709,
AA,60,0,6031,639798,2010-11-24,true,11:14:45.000,925,
IM,60,0,31,370929,2010-11-24,true,11:19:43.000,489,
AI,60,0,10,781664,2010-11-24,true,11:17:44.000,435,
AP,11,4,19,776117,2010-11-24,true,11:17:45.000,376,
AI,60,0,10,781667,2010-11-24,true,11:17:54.000,548,
AI,60,0,10,781668,2010-11-24,true,11:17:55.000,398,
IM,60,0,596,370930,2010-11-24,true,11:19:59.000,1081,
IT,60,0,13,194235,2010-11-24,true,11:17:41.000,3166,
IT,60,0,181,194237,2010-11-24,true,11:17:44.000,9994,
IT,60,0,327,194239,2010-11-24,true,11:17:45.000,6636,
IT,60,0,32,194240,2010-11-24,true,11:17:46.000,6409,
IM,60,0,719,370931,2010-11-24,true,11:20:09.000,414,
IT,60,0,43,194242,2010-11-24,true,11:17:53.000,7983,
IM,60,0,131,370932,2010-11-24,true,11:20:19.000,639,
IM,60,0,63,370933,2010-11-24,true,11:20:21.000,654,
TR,60,0,3959,501578,2010-11-24,true,11:18:25.000,449,
IT,60,0,127,194247,2010-11-24,true,11:18:01.000,7257,
IT,60,0,38,194248,2010-11-24,true,11:18:02.000,1495,
IM,60,0,536,370934,2010-11-24,true,11:20:22.000,418,
IM,60,0,278,370935,2010-11-24,true,11:20:28.000,379,
AI,60,0,11,781675,2010-11-24,true,11:18:31.000,514,
IM,60,0,727,370937,2010-11-24,true,11:20:37.000,537,
IT,11,0,796,194255,2010-11-24,true,11:18:17.000,525,
TR,60,0,453,501583,2010-11-24,true,11:18:43.000,461,
IT,60,0,32,194258,2010-11-24,true,11:18:21.000,6593,
IM,60,0,40,370938,2010-11-24,true,11:20:44.000,407,
IT,60,0,32,194261,2010-11-24,true,11:18:26.000,6119,
IT,60,0,21,194272,2010-11-24,true,11:18:42.000,9614,
TR,60,0,1067,501595,2010-11-24,true,11:19:05.000,574,
TR,60,0,264,501594,2010-11-24,true,11:19:05.000,589,
IT,60,0,40,194273,2010-11-24,true,11:18:43.000,2315,
IT,60,0,50,194275,2010-11-24,true,11:18:45.000,6050,
AI,60,0,11,781681,2010-11-24,true,11:19:12.000,619,
IT,60,0,51,194280,2010-11-24,true,11:18:56.000,773,
IT,60,0,15,194283,2010-11-24,true,11:18:58.000,2028,
IT,60,0,127,194284,2010-11-24,true,11:18:58.000,6065,
TR,60,0,1262,501597,2010-11-24,true,11:19:21.000,426,
AA,60,0,5984,639927,2010-11-24,true,11:19:19.000,5400,
AI,60,0,11,781682,2010-11-24,true,11:16:30.000,449,
IT,60,0,37,194292,2010-11-24,true,11:19:04.000,12920,
IT,60,0,24,194298,2010-11-24,true,11:19:09.000,817,
IT,60,0,327,194302,2010-11-24,true,11:19:16.000,5026,
TR,60,0,112,501605,2010-11-24,true,11:19:43.000,444,
TR,60,0,491,501606,2010-11-24,true,11:19:46.000,358,
IT,60,0,24,194311,2010-11-24,true,11:19:25.000,719,
IT,60,0,32,194333,2010-11-24,true,11:19:55.000,6381,
IT,60,0,1157,194340,2010-11-24,true,11:20:05.000,723,
TR,60,0,430,501627,2010-11-24,true,11:20:39.000,485,
IT,11,0,526,194348,2010-11-24,true,11:20:16.000,388,
TR,60,0,2894,501629,2010-11-24,true,11:20:41.000,454,
TR,60,0,225,501630,2010-11-24,true,11:20:42.000,557,
TR,60,0,108,501632,2010-11-24,true,11:20:44.000,456,
AI,60,0,10,781701,2010-11-24,true,11:20:41.000,481,
IT,60,0,15,194349,2010-11-24,true,11:20:27.000,1962,
TR,60,0,828,501637,2010-11-24,true,11:20:55.000,6094,
TR,60,0,3914,501638,2010-11-24,true,11:20:57.000,409,
IT,60,0,24,194350,2010-11-24,true,11:20:34.000,922,
TR,60,0,549,501639,2010-11-24,true,11:21:03.000,520,
IT,60,0,644,194355,2010-11-24,true,11:20:42.000,4624,
TR,60,0,376,501640,2010-11-24,true,11:21:07.000,542,
AI,60,0,11,781707,2010-11-24,true,11:18:13.000,404,
TR,60,0,112,501642,2010-11-24,true,11:21:09.000,403,
IT,60,0,644,194363,2010-11-24,true,11:20:50.000,4332,
TR,60,0,639,501644,2010-11-24,true,11:21:14.000,654,
AI,60,0,10,781709,2010-11-24,true,11:21:10.000,500,
IT,60,0,34,194364,2010-11-24,true,11:20:53.000,18180,
TR,60,0,226,501650,2010-11-24,true,11:21:23.000,526,
AI,60,0,10,781712,2010-11-24,true,11:18:28.000,421,
IT,60,0,15,194368,2010-11-24,true,11:21:01.000,2016,
TR,60,0,1668,501652,2010-11-24,true,11:21:28.000,408,
IT,60,0,38,194370,2010-11-24,true,11:21:05.000,1420,
AA,23,0,791,640093,2010-11-24,true,11:18:33.000,1145,
TR,60,0,552,501654,2010-11-24,true,11:21:31.000,432,
TR,60,0,3587,501655,2010-11-24,true,11:21:32.000,6715,
IT,60,0,40,194374,2010-11-24,true,11:21:11.000,2617,
TR,60,0,4192,501657,2010-11-24,true,11:21:36.000,512,
IM,60,0,108,370948,2010-11-24,true,11:23:38.000,456,
AI,60,0,10,781720,2010-11-24,false,11:21:40.000,749, INC: Inconsistencia [SocioNoExistente | false]null
TR,60,0,146,501660,2010-11-24,true,11:21:49.000,438,
IT,60,0,38,194384,2010-11-24,true,11:21:29.000,1538,
AI,60,0,10,781721,2010-11-24,true,11:18:59.000,455,
IT,60,0,40,194387,2010-11-24,true,11:21:33.000,2085,
TR,60,0,2903,501665,2010-11-24,true,11:22:03.000,414,
AI,60,0,11,781724,2010-11-24,true,11:19:07.000,379,
IT,60,0,38,194392,2010-11-24,true,11:21:43.000,1239,
TR,60,0,3795,501668,2010-11-24,true,11:22:07.000,443,
IT,60,0,38,194430,2010-11-24,true,11:22:45.000,1298,
IM,60,0,505,370953,2010-11-24,true,11:25:07.000,410,
IT,60,0,24,194440,2010-11-24,true,11:22:54.000,895,
IT,60,0,644,194443,2010-11-24,true,11:22:54.000,4853,
IT,60,0,821,194444,2010-11-24,true,11:22:54.000,791,
IT,11,0,526,194447,2010-11-24,true,11:22:57.000,675,
AI,60,0,10,781739,2010-11-24,true,11:23:17.000,752,
IT,60,0,127,194453,2010-11-24,true,11:23:04.000,6508,
TR,60,0,3405,501710,2010-11-24,true,11:23:27.000,488,
AI,60,0,11,781743,2010-11-24,true,11:20:33.000,379,
TR,60,0,2670,501713,2010-11-24,true,11:23:40.000,422,
AI,60,0,10,781747,2010-11-24,true,11:23:36.000,481,
TR,60,0,2510,501717,2010-11-24,true,11:23:46.000,351,
TR,60,0,2597,501725,2010-11-24,true,11:23:54.000,417,
IT,60,0,34,194461,2010-11-24,true,11:23:31.000,17028,
IT,60,0,24,194463,2010-11-24,true,11:23:39.000,1102,
AA,60,0,720,640273,2010-11-24,true,11:21:06.000,4515,
IT,60,0,187,194466,2010-11-24,true,11:23:40.000,8279,
IT,60,0,24,194471,2010-11-24,true,11:23:44.000,855,
IM,60,0,131,370956,2010-11-24,true,11:26:12.000,1188,
AI,60,0,11,781755,2010-11-24,true,11:24:11.000,472,
IM,60,0,120,370957,2010-11-24,true,11:26:15.000,501,
IT,60,0,21,194481,2010-11-24,true,11:23:59.000,9916,
AA,60,0,520,640293,2010-11-24,true,11:24:18.000,1091,
AI,60,0,10,781757,2010-11-24,false,11:24:18.000,807, INC: Inconsistencia [SocioNoVigente | false]null
TR,60,0,3775,501741,2010-11-24,true,11:24:26.000,437,
IT,60,0,28,194486,2010-11-24,true,11:24:04.000,8247,
AA,60,0,2372,640330,2010-11-24,true,11:21:52.000,646,
IT,60,0,24,194496,2010-11-24,true,11:24:29.000,1491,
IT,60,0,24,194501,2010-11-24,true,11:24:35.000,731,
AI,60,0,11,781764,2010-11-24,true,11:24:53.000,472,
TR,60,0,2874,501748,2010-11-24,true,11:25:00.000,382,
TR,60,0,271,501762,2010-11-24,true,11:25:28.000,436,
AA,60,0,3813,640385,2010-11-24,true,11:22:34.000,4430,
IM,60,0,116,370961,2010-11-24,true,11:27:27.000,461,
AP,24,4,1322,776162,2010-11-24,true,11:25:26.000,407,
IT,60,0,327,194525,2010-11-24,true,11:25:06.000,4429,
TR,60,0,250,501929,2010-11-24,true,11:31:42.000,471,
IM,60,0,188,370994,2010-11-24,true,11:33:42.000,446,
TR,60,0,3408,502174,2010-11-24,true,11:41:03.000,443,
IT,60,0,32,195135,2010-11-24,true,11:40:43.000,7301,
AA,60,0,2694,641492,2010-11-24,true,11:38:14.000,999,
IT,60,0,32,195139,2010-11-24,true,11:40:48.000,6552,
AA,60,0,1011,641496,2010-11-24,true,11:38:18.000,1991,
TR,60,0,4081,502179,2010-11-24,true,11:41:15.000,644,
TR,60,0,3000,502418,2010-11-24,true,11:50:29.000,475,
TR,60,0,1723,502421,2010-11-24,true,11:50:33.000,442,
TR,60,0,291,502423,2010-11-24,true,11:50:33.000,405,
AI,60,0,10,782042,2010-11-24,true,11:47:37.000,427,
IT,60,0,327,195469,2010-11-24,true,11:50:13.000,4874,
TR,60,0,1806,502424,2010-11-24,true,11:50:42.000,518,
AP,24,0,1319,776313,2010-11-24,true,11:50:39.000,411,
AA,60,0,5984,642556,2010-11-24,true,11:57:42.000,6031,
TR,60,0,376,502610,2010-11-24,true,11:57:48.000,481,
IT,60,0,870,195732,2010-11-24,true,11:57:25.000,787,
TR,60,0,201,502612,2010-11-24,true,11:57:49.000,386,
IT,60,0,38,195734,2010-11-24,true,11:57:29.000,1472,
TR,60,0,175,502617,2010-11-24,true,11:57:54.000,500,
AA,60,0,3813,642564,2010-11-24,true,11:54:59.000,6597,
AI,60,0,10,782129,2010-11-24,true,11:57:50.000,417,
TR,60,0,4188,502682,2010-11-24,true,12:00:19.000,475,
IT,11,2,1212,195819,2010-11-24,true,11:59:59.000,6531,
TR,60,0,3000,502685,2010-11-24,true,12:00:22.000,510,
IT,60,0,821,195820,2010-11-24,true,12:00:00.000,1175,
AI,60,0,10,782163,2010-11-24,true,12:00:22.000,572,
IM,60,0,525,371112,2010-11-24,true,12:02:30.000,426,
IT,60,0,32,195829,2010-11-24,true,12:00:13.000,6758,
IM,60,0,490,371124,2010-11-24,true,12:06:38.000,463, ADV Inconsistencia [PrestadorEnPeríodoDePrueba]
IT,60,0,725,195982,2010-11-24,true,12:04:20.000,346,
IM,60,0,764,371142,2010-11-24,true,12:09:35.000,393,
AA,60,0,6845,643138,2010-11-24,true,12:07:37.000,1335,
IT,60,0,38,196078,2010-11-24,true,12:07:20.000,1571,
TR,60,0,3211,502897,2010-11-24,true,12:07:47.000,425,
AA,60,0,6910,643144,2010-11-24,true,12:07:42.000,916, ADV Inconsistencia [PrestadorEnPeríodoDePrueba]
TR,60,0,64,502898,2010-11-24,true,12:07:48.000,354,
AP,60,0,9353,776411,2010-11-24,true,12:07:51.000,357,
IT,60,0,21,196094,2010-11-24,true,12:07:49.000,9663,
TR,60,0,3997,502907,2010-11-24,true,12:08:15.000,416,
AP,33,0,9965,776418,2010-11-24,true,12:08:19.000,400,
TR,60,0,175,502914,2010-11-24,true,12:08:26.000,418,
AA,60,0,6845,643181,2010-11-24,true,12:08:22.000,701,
IM,60,0,502,371147,2010-11-24,true,12:10:26.000,423,
IT,60,0,47,196098,2010-11-24,true,12:08:09.000,9377,
IT,11,0,526,196101,2010-11-24,true,12:08:15.000,396,
IT,60,0,127,196111,2010-11-24,true,12:08:31.000,6653,
AA,60,0,3813,643215,2010-11-24,true,12:06:00.000,3887,
TR,60,0,2885,502920,2010-11-24,true,12:08:56.000,549,
AI,60,0,11,782269,2010-11-24,true,12:08:52.000,421,
TR,60,0,4141,502923,2010-11-24,true,12:08:59.000,663,
IT,11,0,796,196114,2010-11-24,true,12:08:37.000,425,
AP,13,0,19,776421,2010-11-24,true,12:09:00.000,383,
IM,60,0,698,371152,2010-11-24,true,12:11:11.000,349,
AA,60,0,520,643242,2010-11-24,true,12:09:11.000,723,
TR,60,0,3408,502933,2010-11-24,true,12:09:20.000,421,
IT,60,0,51,196122,2010-11-24,true,12:08:57.000,660,
IT,60,0,644,196123,2010-11-24,true,12:08:58.000,4694,
IT,60,0,36,196129,2010-11-24,true,12:09:11.000,5067,
AA,60,0,5978,643267,2010-11-24,true,12:06:43.000,3986,
IT,60,0,21,196130,2010-11-24,true,12:09:18.000,11443,
AA,60,0,2694,643274,2010-11-24,true,12:06:53.000,824,
AA,60,0,289,643277,2010-11-24,true,12:06:54.000,3421,
TR,60,0,984,502946,2010-11-24,true,12:09:51.000,342,
IT,60,0,32,196134,2010-11-24,true,12:09:35.000,6871,
IM,60,0,61,371155,2010-11-24,true,12:11:55.000,461,
IT,60,0,644,196140,2010-11-24,true,12:09:44.000,4662,
TR,60,0,2736,502952,2010-11-24,true,12:10:10.000,417,
IM,60,0,505,371156,2010-11-24,true,12:12:07.000,583,
IT,60,0,38,196143,2010-11-24,true,12:09:50.000,1511,
TR,60,0,227,502954,2010-11-24,true,12:10:15.000,438,
AA,60,0,5984,643305,2010-11-24,true,12:10:10.000,5599,
TR,60,0,3800,502955,2010-11-24,true,12:10:17.000,433,
IT,60,0,34,196155,2010-11-24,true,12:10:03.000,18058,
TR,60,0,3757,502963,2010-11-24,true,12:10:31.000,515,
IT,60,0,38,196158,2010-11-24,true,12:10:10.000,1335,
IT,60,0,24,196159,2010-11-24,true,12:10:12.000,869,
IT,60,0,36,196163,2010-11-24,true,12:10:15.000,5551,
IM,60,0,478,371159,2010-11-24,true,12:12:38.000,452,
TR,60,0,90,502968,2010-11-24,true,12:10:44.000,441,
IT,60,0,644,196174,2010-11-24,true,12:10:43.000,4686,
IT,60,0,24,196181,2010-11-24,true,12:10:57.000,711,
IT,60,0,34,196182,2010-11-24,true,12:11:00.000,18722,
TR,60,0,789,502981,2010-11-24,true,12:11:25.000,546,
TR,60,0,3611,502983,2010-11-24,true,12:11:26.000,500,
IT,60,0,40,196183,2010-11-24,true,12:11:05.000,2365,
AI,60,0,11,782304,2010-11-24,true,12:08:35.000,469,
TR,60,0,106,502985,2010-11-24,true,12:11:32.000,453,
IM,60,0,512,371164,2010-11-24,true,12:13:32.000,496,
AA,60,0,2694,643386,2010-11-24,true,12:08:47.000,888,
IT,60,0,21,196193,2010-11-24,true,12:11:22.000,10338,
TR,60,0,3321,502990,2010-11-24,true,12:11:46.000,506,
IT,60,0,24,196194,2010-11-24,true,12:11:24.000,900,
AI,60,0,11,782306,2010-11-24,true,12:08:53.000,417,
AI,60,0,11,782308,2010-11-24,true,12:11:46.000,409,
AA,60,0,161,643404,2010-11-24,true,12:09:06.000,441,
IT,60,0,28,196201,2010-11-24,true,12:11:39.000,9331,
TR,60,0,2870,502996,2010-11-24,true,12:12:06.000,424,
TR,60,0,3738,502999,2010-11-24,true,12:12:14.000,1195,
AI,60,0,11,782313,2010-11-24,true,12:09:19.000,359,
IT,60,0,38,196213,2010-11-24,false,12:11:52.000,1460, INC: Inconsistencia [SocioNoExistente | false]null
AI,60,0,11,782314,2010-11-24,true,12:12:11.000,401,
AI,60,0,11,782315,2010-11-24,true,12:09:22.000,423,
AI,60,0,11,782316,2010-11-24,true,12:09:22.000,545,
IM,60,0,750,371168,2010-11-24,true,12:14:18.000,1394,
TR,60,0,1262,503003,2010-11-24,true,12:12:25.000,418,
IT,60,0,1157,196220,2010-11-24,true,12:12:03.000,781,
AI,60,0,11,782318,2010-11-24,true,12:12:22.000,385,
AA,60,0,161,643434,2010-11-24,true,12:09:36.000,644,
TR,60,0,3250,503009,2010-11-24,true,12:12:38.000,448,
IT,60,0,644,196228,2010-11-24,true,12:12:17.000,4826,
AI,60,0,11,782322,2010-11-24,true,12:12:35.000,348,
TR,60,0,3827,503010,2010-11-24,true,12:12:42.000,547,
TR,60,0,3964,503011,2010-11-24,true,12:12:43.000,477,
AI,60,0,10,782325,2010-11-24,true,12:12:42.000,355,
AA,60,0,3813,643453,2010-11-24,true,12:09:59.000,4128,
AI,60,0,11,782329,2010-11-24,true,12:10:01.000,407,
IT,60,0,15,196235,2010-11-24,true,12:12:37.000,2058,
TR,60,0,1771,503019,2010-11-24,true,12:13:01.000,448,
AA,60,0,3813,643458,2010-11-24,true,12:10:06.000,3877,
AI,60,0,11,782332,2010-11-24,true,12:13:01.000,474,
TR,60,0,4178,503027,2010-11-24,true,12:13:13.000,585,
IT,11,0,526,196244,2010-11-24,true,12:12:50.000,435,
IT,11,0,1133,196248,2010-11-24,true,12:12:54.000,417,
TR,60,0,2811,503031,2010-11-24,true,12:13:29.000,694,
IT,60,0,181,196254,2010-11-24,true,12:13:07.000,10068,
AI,60,0,11,782338,2010-11-24,true,12:13:27.000,355,
TR,60,0,3815,503032,2010-11-24,true,12:13:32.000,408,
AI,60,0,11,782339,2010-11-24,true,12:13:29.000,484,
AI,60,0,10,782341,2010-11-24,true,12:13:33.000,537,
TR,60,0,1745,503034,2010-11-24,true,12:13:40.000,487,
IT,60,0,327,196259,2010-11-24,true,12:13:20.000,4677,
AI,60,0,11,782344,2010-11-24,true,12:10:49.000,399,
AA,60,0,3813,643508,2010-11-24,true,12:10:56.000,4046,
AA,60,0,720,643510,2010-11-24,true,12:10:58.000,4747,
IT,60,0,24,196264,2010-11-24,true,12:13:33.000,774,
IT,60,0,21,196265,2010-11-24,true,12:13:34.000,10213,
AI,60,0,11,782347,2010-11-24,true,12:13:53.000,583,
IT,60,0,127,196266,2010-11-24,true,12:13:36.000,6837,
AI,60,0,10,782349,2010-11-24,true,12:13:56.000,522,
TR,60,0,4188,503047,2010-11-24,true,12:14:10.000,388,
AI,60,0,11,782353,2010-11-24,true,12:11:14.000,921,
IT,60,0,53,196277,2010-11-24,true,12:13:51.000,2943,
TR,60,0,232,503051,2010-11-24,true,12:14:20.000,506,
IT,60,0,43,196281,2010-11-24,true,12:13:59.000,8643,
IM,60,0,81,371180,2010-11-24,true,12:16:20.000,512,
AI,60,0,11,782356,2010-11-24,true,12:14:18.000,488,
AA,60,0,3820,643545,2010-11-24,true,12:11:28.000,990,
IT,60,0,13,196283,2010-11-24,true,12:14:02.000,2692,
IT,60,0,21,196284,2010-11-24,true,12:14:02.000,11338,
TR,60,0,430,503055,2010-11-24,true,12:14:26.000,403,
TR,60,0,4025,503058,2010-11-24,true,12:14:32.000,431,
AA,60,0,4981,643559,2010-11-24,true,12:11:40.000,16928,
IM,60,0,729,371183,2010-11-24,true,12:16:34.000,3250,
AI,60,0,10,782358,2010-11-24,true,12:14:33.000,389,
AI,60,0,11,782361,2010-11-24,false,12:14:41.000,427, INC: Inconsistencia [SocioNoVigente | false]null
AA,60,0,4981,643578,2010-11-24,true,12:11:54.000,17222,
AI,60,0,11,782363,2010-11-24,true,12:14:45.000,447,
IT,60,0,15,196299,2010-11-24,true,12:14:27.000,1974,
AP,13,0,19,776446,2010-11-24,true,12:14:45.000,414,
AA,60,0,161,643583,2010-11-24,true,12:11:59.000,416,
TR,60,0,146,503062,2010-11-24,true,12:14:56.000,364,
AA,60,0,2694,643589,2010-11-24,true,12:12:06.000,817,
IM,60,0,524,371186,2010-11-24,true,12:17:04.000,1409,
IT,60,0,28,196308,2010-11-24,true,12:14:47.000,9041,
TR,60,0,3914,503069,2010-11-24,true,12:15:13.000,5257,
IM,60,0,715,371187,2010-11-24,true,12:17:10.000,911,
AA,60,0,5984,643600,2010-11-24,false,12:15:09.000,6328, INC: Inconsistencia [SocioNoVigente | false]null
TR,60,0,940,503071,2010-11-24,true,12:15:15.000,417,
AI,60,0,11,782368,2010-11-24,true,12:15:11.000,461,
IT,60,0,644,196314,2010-11-24,true,12:14:54.000,4861,
TR,60,0,39,503073,2010-11-24,true,12:15:18.000,432,
IM,60,0,515,371188,2010-11-24,true,12:17:15.000,762,
IM,60,0,188,371189,2010-11-24,true,12:17:16.000,409,
AI,60,0,11,782369,2010-11-24,true,12:12:23.000,384,
IT,60,0,327,196317,2010-11-24,true,12:14:58.000,4874,
AA,60,0,5984,643610,2010-11-24,false,12:15:17.000,5011, INC: Inconsistencia [SocioNoVigente | false]null
AA,60,0,5984,643618,2010-11-24,true,12:15:20.000,5104,
AA,60,0,161,643616,2010-11-24,true,12:12:29.000,418,
AI,60,0,11,782371,2010-11-24,true,12:15:21.000,447,
IM,60,0,108,371191,2010-11-24,true,12:17:24.000,358,
TR,60,0,879,503076,2010-11-24,true,12:15:29.000,490,
AA,60,0,5984,643629,2010-11-24,false,12:15:30.000,5112, INC: Inconsistencia [SocioNoVigente | false]null
TR,60,0,2393,503079,2010-11-24,true,12:15:36.000,575,
TR,60,0,2812,503080,2010-11-24,true,12:15:40.000,1078,
AA,60,0,2707,643634,2010-11-24,true,12:12:44.000,473,
AI,60,0,11,782375,2010-11-24,true,12:15:35.000,577,
TR,60,0,175,503081,2010-11-24,true,12:15:46.000,475,
TR,60,0,254,503082,2010-11-24,true,12:15:46.000,518,
TR,60,0,112,503083,2010-11-24,true,12:15:47.000,541,
IT,60,0,32,196327,2010-11-24,true,12:15:24.000,6798,
TR,60,0,338,503085,2010-11-24,true,12:15:49.000,485,
AI,60,0,11,782379,2010-11-24,true,12:12:55.000,465,
AP,11,0,9931,776455,2010-11-24,true,12:15:45.000,478,
AA,60,0,161,643648,2010-11-24,true,12:12:57.000,477,
IT,60,0,28,196330,2010-11-24,true,12:15:31.000,8516,
IT,60,0,24,196333,2010-11-24,true,12:15:35.000,1001,
TR,60,0,2718,503092,2010-11-24,true,12:16:02.000,471,
AP,60,0,9788,776459,2010-11-24,true,12:15:58.000,425,
IT,60,0,327,196337,2010-11-24,true,12:15:44.000,4710,
TR,60,0,285,503096,2010-11-24,true,12:16:09.000,400,
AA,60,0,720,643667,2010-11-24,true,12:13:18.000,4802,
TR,60,0,3757,503098,2010-11-24,true,12:16:16.000,438,
IT,60,0,32,196346,2010-11-24,true,12:16:01.000,6817,
AI,60,0,11,782386,2010-11-24,true,12:13:31.000,436,
IT,60,0,24,196350,2010-11-24,true,12:16:05.000,722,
AA,60,0,5984,643695,2010-11-24,true,12:16:37.000,5400,
TR,60,0,670,503106,2010-11-24,true,12:16:44.000,483,
TR,60,0,430,503108,2010-11-24,true,12:16:45.000,763,
IT,60,0,15,196357,2010-11-24,true,12:16:26.000,2083,
TR,60,0,373,503114,2010-11-24,true,12:16:54.000,421,
AI,60,0,11,782393,2010-11-24,true,12:13:59.000,424,
TR,60,0,2551,503116,2010-11-24,true,12:16:56.000,443,
TR,60,0,236,503120,2010-11-24,true,12:16:59.000,417,
AI,60,0,11,782396,2010-11-24,true,12:16:55.000,436,
AA,60,0,1011,643731,2010-11-24,true,12:14:07.000,1292,
IT,60,0,53,196364,2010-11-24,true,12:16:43.000,3037,
AA,60,0,3180,643739,2010-11-24,true,12:14:15.000,1788,
TR,60,0,2610,503125,2010-11-24,true,12:17:13.000,482,
IM,60,0,33,371198,2010-11-24,true,12:19:12.000,770,
IM,60,0,40,371200,2010-11-24,true,12:19:13.000,396,
TR,60,0,3998,503129,2010-11-24,true,12:17:18.000,355,
IT,60,0,24,196372,2010-11-24,true,12:16:58.000,876,
IT,60,0,28,196373,2010-11-24,true,12:17:02.000,8416,
AA,60,0,2707,643760,2010-11-24,true,12:14:36.000,465,
TR,60,0,3796,503136,2010-11-24,true,12:17:35.000,871,
TR,60,0,3757,503137,2010-11-24,true,12:17:35.000,433,
IT,60,0,24,196376,2010-11-24,true,12:17:13.000,795,
TR,60,0,276,503139,2010-11-24,true,12:17:37.000,424,
IT,60,0,43,196379,2010-11-24,true,12:17:16.000,9036,
TR,60,0,2812,503141,2010-11-24,true,12:17:41.000,926,
TR,60,0,3795,503143,2010-11-24,true,12:17:46.000,450,
IT,60,0,327,196381,2010-11-24,true,12:17:23.000,4602,
IT,60,0,13,196382,2010-11-24,true,12:17:25.000,2884,
AI,60,0,11,782406,2010-11-24,true,12:17:43.000,438,
AI,60,0,11,782408,2010-11-24,true,12:17:50.000,417,
AA,60,0,2707,643786,2010-11-24,true,12:15:04.000,460,
TR,60,0,3211,503149,2010-11-24,true,12:18:05.000,395,
TR,60,0,20,503152,2010-11-24,true,12:18:11.000,372,
IT,60,0,24,196389,2010-11-24,true,12:17:50.000,900,
TR,60,0,3815,503153,2010-11-24,true,12:18:14.000,401,
TR,60,0,2766,503154,2010-11-24,true,12:18:14.000,359,
AI,60,0,10,782414,2010-11-24,true,12:15:20.000,688,
TR,60,0,3914,503156,2010-11-24,true,12:18:17.000,432,
AP,24,4,1328,776470,2010-11-24,true,12:18:12.000,293,
IT,60,0,13,196390,2010-11-24,true,12:17:59.000,2420,
AI,60,0,11,782416,2010-11-24,true,12:18:18.000,361,
IT,60,0,127,196393,2010-11-24,true,12:18:01.000,7136,
TR,60,0,90,503159,2010-11-24,true,12:18:26.000,408,
AA,60,0,2707,643812,2010-11-24,true,12:15:31.000,406,
TR,60,0,3827,503161,2010-11-24,true,12:18:32.000,535,
IT,60,0,34,196398,2010-11-24,true,12:18:17.000,18236,
TR,60,0,983,503165,2010-11-24,true,12:18:43.000,424,
AA,60,0,654,643832,2010-11-24,true,12:15:48.000,509,
TR,60,0,2831,503168,2010-11-24,true,12:18:46.000,492,
IT,60,0,15,196403,2010-11-24,true,12:18:23.000,2182,
IT,60,0,13,196405,2010-11-24,true,12:18:26.000,2962,
TR,60,0,2766,503169,2010-11-24,true,12:18:50.000,502,
AA,60,0,720,643840,2010-11-24,true,12:15:54.000,4936,
AA,60,0,2707,643845,2010-11-24,true,12:15:57.000,432,
IM,60,0,757,371204,2010-11-24,true,12:20:52.000,507,
IT,60,0,53,196408,2010-11-24,true,12:18:32.000,3376,
TR,60,0,984,503175,2010-11-24,true,12:18:57.000,390,
AI,60,0,11,782424,2010-11-24,true,12:18:55.000,391,
TR,60,0,3945,503177,2010-11-24,true,12:19:04.000,752,
IT,60,0,13,196413,2010-11-24,true,12:18:46.000,2749,
IT,60,0,127,196414,2010-11-24,true,12:18:47.000,6128,
TR,60,0,38,503182,2010-11-24,true,12:19:17.000,418,
IT,11,0,526,196418,2010-11-24,true,12:18:54.000,352,
IM,60,0,478,371206,2010-11-24,true,12:21:15.000,484,
AA,60,0,2707,643875,2010-11-24,true,12:16:22.000,429,
IT,60,0,13,196420,2010-11-24,true,12:18:55.000,2495,
AA,60,0,3180,643879,2010-11-24,true,12:16:24.000,1730,
IT,60,0,32,196421,2010-11-24,true,12:18:58.000,6723,
IT,60,0,1157,196422,2010-11-24,true,12:19:02.000,723,
IT,60,0,1094,196423,2010-11-24,true,12:19:02.000,588,
TR,60,0,2812,503186,2010-11-24,true,12:19:30.000,897,
TR,60,0,3534,503189,2010-11-24,true,12:19:35.000,469,
AI,60,0,11,782433,2010-11-24,true,12:19:31.000,402,
IT,60,0,32,196429,2010-11-24,true,12:19:15.000,6095,
TR,60,0,124,503191,2010-11-24,true,12:19:40.000,397,
IM,60,0,756,371209,2010-11-24,true,12:21:38.000,526,
AA,60,0,2707,643902,2010-11-24,true,12:16:47.000,554,
IT,60,0,27,196433,2010-11-24,true,12:19:27.000,12495,
IM,60,0,426,371211,2010-11-24,true,12:21:50.000,870,
AA,60,0,5984,643912,2010-11-24,true,12:19:47.000,5887,
AI,60,0,11,782436,2010-11-24,true,12:16:58.000,383,
AA,60,0,3180,643925,2010-11-24,true,12:17:06.000,1734,
IM,60,0,502,371212,2010-11-24,true,12:22:04.000,611,
TR,60,0,983,503196,2010-11-24,true,12:20:09.000,537,
IT,60,0,24,196441,2010-11-24,true,12:19:48.000,977,
AI,60,0,11,782441,2010-11-24,true,12:20:16.000,374,
AA,60,0,2707,643940,2010-11-24,true,12:17:27.000,481,
TR,60,0,879,503199,2010-11-24,true,12:20:24.000,541,
AI,60,0,10,782442,2010-11-24,true,12:20:18.000,556,
IM,60,0,197,371215,2010-11-24,true,12:22:24.000,406,
IM,60,0,129,371216,2010-11-24,true,12:22:26.000,357,
TR,60,0,44,503205,2010-11-24,true,12:20:34.000,348,
IT,60,0,1157,196451,2010-11-24,true,12:20:15.000,922,
AA,60,0,5984,643957,2010-11-24,true,12:20:36.000,5735,
IT,60,0,21,196453,2010-11-24,true,12:20:21.000,12477,
TR,60,0,38,503208,2010-11-24,true,12:20:47.000,428,
IT,60,0,155,196457,2010-11-24,true,12:20:23.000,968,
TR,60,0,232,503210,2010-11-24,true,12:20:50.000,476,
IT,60,0,13,196459,2010-11-24,true,12:20:27.000,2697,
IT,60,0,24,196461,2010-11-24,true,12:20:29.000,944,
AI,60,0,11,782448,2010-11-24,true,12:20:57.000,378,
IT,60,0,32,196472,2010-11-24,true,12:20:41.000,7350,
AA,60,0,5984,643988,2010-11-24,false,12:21:02.000,5740, INC: Inconsistencia [SocioNoVigente | false]null
AI,60,0,10,782451,2010-11-24,true,12:18:15.000,485,
AA,60,0,5984,643991,2010-11-24,false,12:21:07.000,4868, INC: Inconsistencia [SocioNoVigente | false]null
TR,60,0,3907,503219,2010-11-24,true,12:21:18.000,426,
AA,60,0,5984,644003,2010-11-24,false,12:21:15.000,5419, INC: Inconsistencia [SocioNoVigente | false]null
TR,60,0,785,503221,2010-11-24,true,12:21:21.000,499,
TR,60,0,142,503224,2010-11-24,true,12:21:26.000,626,
AI,60,0,10,782453,2010-11-24,true,12:21:21.000,406,
TR,60,0,3757,503226,2010-11-24,true,12:21:33.000,451,
IT,60,0,24,196488,2010-11-24,true,12:21:10.000,735,
TR,60,0,38,503227,2010-11-24,true,12:21:37.000,452,
IT,60,0,13,196491,2010-11-24,true,12:21:15.000,2630,
AI,60,0,11,782454,2010-11-24,true,12:18:42.000,489,
AP,60,0,9788,776499,2010-11-24,true,12:21:35.000,755,
AA,60,0,6910,644022,2010-11-24,true,12:21:36.000,950,
AI,60,0,11,782455,2010-11-24,true,12:21:37.000,398,
IT,60,0,34,196503,2010-11-24,true,12:21:24.000,28325,
AP,60,0,9353,776502,2010-11-24,true,12:21:46.000,949,
TR,60,0,231,503237,2010-11-24,true,12:21:56.000,640,
AA,60,0,4981,644042,2010-11-24,true,12:19:00.000,24031,
AA,23,0,12,644043,2010-11-24,true,12:19:00.000,2741,
IT,60,0,51,196508,2010-11-24,true,12:21:34.000,751,
AA,60,0,5984,644044,2010-11-24,true,12:21:54.000,5271,
TR,60,0,3795,503239,2010-11-24,true,12:22:00.000,649,
AA,60,0,4981,644047,2010-11-24,true,12:19:05.000,23266,
TR,60,0,264,503243,2010-11-24,true,12:22:03.000,621,
IT,60,0,32,196510,2010-11-24,true,12:21:41.000,6646,
TR,60,0,3782,503246,2010-11-24,true,12:22:07.000,2155,
AA,60,0,2694,644059,2010-11-24,true,12:19:17.000,883,
TR,60,0,2632,503247,2010-11-24,true,12:22:14.000,502,
AI,60,0,10,782461,2010-11-24,true,12:22:08.000,3078,
IT,60,0,1382,196519,2010-11-24,true,12:21:52.000,712,
AA,60,0,5978,644063,2010-11-24,true,12:19:23.000,4304,
AI,60,0,11,782463,2010-11-24,true,12:22:15.000,482,
TR,60,0,385,503252,2010-11-24,true,12:22:28.000,357,
IT,60,0,32,196524,2010-11-24,true,12:22:05.000,6515,
IT,60,0,13,196526,2010-11-24,true,12:22:08.000,2813,
TR,60,0,1010,503254,2010-11-24,true,12:22:33.000,384,
IT,60,0,37,196527,2010-11-24,true,12:22:14.000,12715,
IT,60,0,51,196533,2010-11-24,true,12:22:22.000,692,
IT,60,0,13,196534,2010-11-24,true,12:22:23.000,2669,
TR,60,0,549,503259,2010-11-24,true,12:22:49.000,568,
TR,60,0,3916,503260,2010-11-24,true,12:22:49.000,534,
AI,60,0,10,782467,2010-11-24,true,12:19:54.000,656,
IT,60,0,1382,196541,2010-11-24,true,12:22:33.000,470,
AI,60,0,11,782469,2010-11-24,true,12:22:53.000,365,
TR,60,0,491,503265,2010-11-24,true,12:23:00.000,634,
AI,60,0,10,782470,2010-11-24,true,12:22:57.000,666,
IT,60,0,870,196544,2010-11-24,true,12:22:40.000,1034,
IT,60,0,38,196545,2010-11-24,true,12:22:43.000,1771,
TR,60,0,385,503269,2010-11-24,true,12:23:10.000,381,
TR,60,0,2754,503270,2010-11-24,true,12:23:11.000,323,
IM,60,0,236,371223,2010-11-24,true,12:25:11.000,412,
TR,60,0,3782,503274,2010-11-24,true,12:23:21.000,484,
AA,60,0,2694,644115,2010-11-24,true,12:20:25.000,802,
IT,60,0,37,196561,2010-11-24,true,12:23:10.000,13141,
AI,60,0,10,782475,2010-11-24,true,12:20:38.000,856,
AI,60,0,11,782477,2010-11-24,true,12:23:32.000,423,
TR,60,0,3795,503282,2010-11-24,true,12:23:39.000,749,
IT,60,0,1382,196567,2010-11-24,true,12:23:18.000,497,
IT,60,0,327,196568,2010-11-24,true,12:23:19.000,4458,
AA,60,0,6910,644145,2010-11-24,true,12:23:44.000,906,
AI,60,0,11,782479,2010-11-24,true,12:23:45.000,5718,
IT,60,0,51,196573,2010-11-24,true,12:23:29.000,667,
IT,60,0,28,196575,2010-11-24,true,12:23:31.000,8019,
TR,60,0,2874,503288,2010-11-24,true,12:24:07.000,393,
AI,60,0,11,782485,2010-11-24,true,12:21:13.000,547,
AI,60,0,10,782486,2010-11-24,true,12:24:04.000,410,
IT,60,0,32,196587,2010-11-24,true,12:23:50.000,6888,
AA,60,0,3180,644164,2010-11-24,true,12:21:16.000,1683,
IT,11,0,1231,196589,2010-11-24,true,12:23:51.000,469,
AI,60,0,11,782487,2010-11-24,true,12:24:09.000,453,
AI,60,0,10,782488,2010-11-24,true,12:21:20.000,722,
IT,60,0,24,196592,2010-11-24,true,12:23:55.000,732,
AA,60,0,2694,644174,2010-11-24,true,12:21:22.000,820,
IT,60,0,1382,196595,2010-11-24,true,12:23:56.000,389,
AI,60,0,11,782489,2010-11-24,true,12:24:14.000,6447,
IM,60,0,172,371226,2010-11-24,true,12:26:17.000,379,
AP,33,0,9984,776515,2010-11-24,true,12:24:15.000,312,
IT,60,0,13,196601,2010-11-24,true,12:24:00.000,2672,
IT,60,0,21,196603,2010-11-24,true,12:24:04.000,9431,
TR,60,0,3782,503294,2010-11-24,true,12:24:28.000,466,
AI,60,0,10,782492,2010-11-24,true,12:24:22.000,381,
TR,60,0,1667,503295,2010-11-24,true,12:24:30.000,503,
IT,60,0,327,196605,2010-11-24,true,12:24:07.000,4634,
AI,60,0,11,782494,2010-11-24,true,12:21:36.000,463,
TR,60,0,2610,503296,2010-11-24,true,12:24:33.000,431,
IT,60,0,21,196609,2010-11-24,true,12:24:10.000,8996,
IM,60,0,514,371227,2010-11-24,true,12:26:30.000,441,
TR,60,0,2813,503298,2010-11-24,true,12:24:40.000,394,
AP,24,4,1328,776517,2010-11-24,true,12:24:41.000,516,
AI,60,0,11,782498,2010-11-24,true,12:24:43.000,6305,
IT,60,0,870,196622,2010-11-24,true,12:24:30.000,870,
AA,60,0,57,644215,2010-11-24,true,12:22:00.000,1348,
AI,60,0,10,782501,2010-11-24,true,12:24:54.000,378,
IT,60,0,24,196630,2010-11-24,true,12:24:49.000,749,
IT,60,0,13,196631,2010-11-24,true,12:24:50.000,2741,
IT,60,0,36,196634,2010-11-24,true,12:24:52.000,5924,
AI,60,0,11,782506,2010-11-24,true,12:25:12.000,5291,
AA,23,0,35,644245,2010-11-24,true,12:22:26.000,759,
IT,60,0,32,196650,2010-11-24,true,12:25:16.000,8098,
AA,60,0,2397,644268,2010-11-24,true,12:22:43.000,920,
AA,60,0,4320,644275,2010-11-24,true,12:22:49.000,8046,
AI,60,0,11,782510,2010-11-24,true,12:25:41.000,5723,
IT,60,0,1382,196653,2010-11-24,true,12:25:23.000,661,
AA,60,0,2694,644281,2010-11-24,true,12:22:51.000,794,
AI,60,0,10,782513,2010-11-24,false,12:25:47.000,372, INC: Inconsistencia [SocioNoExistente | false]null
IT,60,0,21,196659,2010-11-24,true,12:25:33.000,9614,
AP,60,0,9711,776529,2010-11-24,true,12:25:52.000,400,
TR,60,0,3988,503342,2010-11-24,true,12:26:12.000,834,
AI,60,0,11,782517,2010-11-24,true,12:26:07.000,5839,
TR,60,0,1913,503346,2010-11-24,true,12:26:24.000,460,
AA,60,0,4320,644321,2010-11-24,true,12:23:31.000,8408,
IM,60,0,505,371232,2010-11-24,true,12:28:25.000,402,
IT,60,0,644,196681,2010-11-24,true,12:26:11.000,4807,
IT,60,0,51,196683,2010-11-24,true,12:26:13.000,653,
IM,60,0,236,371233,2010-11-24,true,12:28:34.000,378,
AI,60,0,11,782522,2010-11-24,true,12:26:34.000,5549,
IT,60,0,36,196692,2010-11-24,true,12:26:22.000,8113,
AI,60,0,10,782526,2010-11-24,true,12:26:42.000,449,
TR,60,0,146,503354,2010-11-24,true,12:26:48.000,376,
TR,60,0,2769,503358,2010-11-24,true,12:26:51.000,444,
IT,60,0,32,196695,2010-11-24,true,12:26:28.000,7093,
AI,60,0,11,782527,2010-11-24,true,12:23:58.000,377,
IT,60,0,32,196698,2010-11-24,true,12:26:31.000,6097,
TR,60,0,2868,503360,2010-11-24,true,12:26:54.000,376,
TR,60,0,3548,503364,2010-11-24,true,12:26:58.000,405,
IT,60,0,32,196701,2010-11-24,true,12:26:36.000,6658,
TR,60,0,216,503367,2010-11-24,true,12:27:02.000,417,
IT,60,0,32,196703,2010-11-24,true,12:26:39.000,6171,
TR,60,0,90,503369,2010-11-24,true,12:27:07.000,393,
AI,60,0,11,782533,2010-11-24,true,12:27:06.000,6539,
TR,60,0,110,503371,2010-11-24,true,12:27:12.000,445,
TR,60,0,3988,503372,2010-11-24,true,12:27:12.000,654,
IM,60,0,77,371237,2010-11-24,true,12:29:10.000,645,
IT,60,0,127,196707,2010-11-24,true,12:26:53.000,6470,
IT,60,0,38,196711,2010-11-24,true,12:26:58.000,1386,
TR,60,0,3827,503374,2010-11-24,true,12:27:21.000,477,
TR,60,0,3992,503376,2010-11-24,true,12:27:21.000,848,
IT,60,0,34,196712,2010-11-24,true,12:27:00.000,20286,
IT,60,0,32,196713,2010-11-24,true,12:27:00.000,7529,
IT,60,0,1094,196714,2010-11-24,true,12:27:02.000,803,
TR,60,0,3795,503380,2010-11-24,true,12:27:27.000,563,
TR,60,0,3534,503381,2010-11-24,true,12:27:27.000,454,
AI,60,0,11,782537,2010-11-24,true,12:24:33.000,382,
IT,60,0,13,196716,2010-11-24,true,12:27:06.000,2679,
AI,60,0,11,782539,2010-11-24,true,12:27:31.000,5603,
AI,60,0,10,782540,2010-11-24,true,12:27:35.000,440,
AA,60,0,3820,644387,2010-11-24,true,12:24:50.000,1338,
IT,60,0,644,196722,2010-11-24,true,12:27:23.000,5208,
AA,60,0,6031,644389,2010-11-24,true,12:24:52.000,961,
IT,60,0,32,196725,2010-11-24,true,12:27:27.000,5983,
IT,60,0,21,196728,2010-11-24,true,12:27:28.000,9021,
TR,60,0,124,503394,2010-11-24,true,12:27:56.000,394,
TR,60,0,13,503393,2010-11-24,true,12:27:56.000,403,
TR,60,0,789,503396,2010-11-24,true,12:27:58.000,468,
AA,60,0,1280,644400,2010-11-24,true,12:25:02.000,4227,
IM,60,0,77,371241,2010-11-24,true,12:29:56.000,544,
IT,60,0,40,196735,2010-11-24,true,12:27:39.000,2229,
AI,60,0,11,782542,2010-11-24,true,12:27:59.000,6023,
TR,60,0,3757,503399,2010-11-24,true,12:28:07.000,373,
TR,60,0,291,503402,2010-11-24,true,12:28:12.000,380,
IM,60,0,505,371243,2010-11-24,true,12:30:10.000,974,
AI,60,0,11,782545,2010-11-24,true,12:25:20.000,361,
IT,60,0,47,196744,2010-11-24,true,12:27:57.000,9848,
TR,60,0,146,503405,2010-11-24,true,12:28:21.000,379,
TR,60,0,2868,503408,2010-11-24,true,12:28:24.000,352,
TR,60,0,2551,503412,2010-11-24,true,12:28:31.000,435,
AI,60,0,11,782547,2010-11-24,true,12:28:26.000,5637,
IT,60,0,32,196753,2010-11-24,true,12:28:10.000,6692,
AA,23,0,13,644434,2010-11-24,true,12:25:38.000,361,
TR,60,0,13,503414,2010-11-24,true,12:28:35.000,407,
IT,11,0,526,196754,2010-11-24,true,12:28:13.000,326,
IT,60,0,32,196758,2010-11-24,true,12:28:21.000,6281,
IM,60,0,77,371245,2010-11-24,true,12:30:42.000,524,
IM,60,0,549,371248,2010-11-24,true,12:30:52.000,381,
AI,60,0,11,782554,2010-11-24,true,12:28:51.000,6108,
AA,60,0,1280,644461,2010-11-24,true,12:26:08.000,4156,
TR,60,0,4115,503432,2010-11-24,true,12:29:04.000,325,
AI,60,0,11,782556,2010-11-24,true,12:26:12.000,407,
TR,60,0,3757,503437,2010-11-24,true,12:29:12.000,407,
AA,60,0,1280,644467,2010-11-24,true,12:26:16.000,3513,
IT,60,0,53,196770,2010-11-24,true,12:28:50.000,3725,
IT,60,0,27,196773,2010-11-24,true,12:28:53.000,14322,
TR,60,0,17,503439,2010-11-24,true,12:29:18.000,498,
TR,60,0,64,503440,2010-11-24,true,12:29:23.000,494,
AI,60,0,11,782560,2010-11-24,true,12:29:20.000,6213,
TR,60,0,276,503441,2010-11-24,true,12:29:26.000,497,
TR,60,0,453,503442,2010-11-24,true,12:29:27.000,356,
AI,60,0,10,782561,2010-11-24,true,12:29:23.000,377,
AA,60,0,2694,644480,2010-11-24,true,12:26:33.000,832,
AI,60,0,10,782562,2010-11-24,true,12:29:23.000,443,
IT,60,0,21,196784,2010-11-24,true,12:29:07.000,9578,
IT,60,0,32,196785,2010-11-24,true,12:29:09.000,6515,
IM,60,0,596,371253,2010-11-24,true,12:31:33.000,1267,
TR,60,0,2813,503446,2010-11-24,true,12:29:42.000,520,
TR,60,0,1262,503449,2010-11-24,true,12:29:44.000,651,
AA,60,0,6845,644499,2010-11-24,true,12:29:40.000,777,
IT,60,0,644,196792,2010-11-24,true,12:29:24.000,4895,
AA,60,0,5984,644503,2010-11-24,true,12:29:43.000,5382,
AI,60,0,11,782567,2010-11-24,true,12:29:46.000,5569,
TR,60,0,3775,503454,2010-11-24,true,12:29:58.000,463,
TR,60,0,2868,503455,2010-11-24,true,12:30:00.000,412,
IT,60,0,32,196797,2010-11-24,true,12:29:39.000,6632,
IT,60,0,1382,196799,2010-11-24,true,12:29:41.000,674,
TR,60,0,1010,503457,2010-11-24,true,12:30:05.000,473,
AI,60,0,10,782569,2010-11-24,false,12:30:04.000,349, INC: Inconsistencia [SocioNoExistente | false]null
TR,60,0,158,503461,2010-11-24,true,12:30:16.000,369,
TR,60,0,3587,503464,2010-11-24,true,12:30:19.000,464,
AI,60,0,11,782574,2010-11-24,true,12:30:15.000,5284,
TR,60,0,2551,503465,2010-11-24,true,12:30:21.000,440,
TR,60,0,2632,503466,2010-11-24,true,12:30:22.000,502,
TR,60,0,38,503467,2010-11-24,true,12:30:23.000,383,
TR,60,0,3321,503469,2010-11-24,true,12:30:26.000,359,
IT,60,0,21,196813,2010-11-24,true,12:30:03.000,9609,
IT,60,0,35,196815,2010-11-24,true,12:30:04.000,3180,
IT,60,0,32,196817,2010-11-24,true,12:30:05.000,6131,
AA,60,0,2694,644548,2010-11-24,true,12:27:33.000,759,
TR,60,0,1760,503472,2010-11-24,true,12:30:30.000,345,
AA,60,0,2694,644554,2010-11-24,true,12:27:37.000,733,
TR,60,0,2766,503475,2010-11-24,true,12:30:34.000,368,
AI,60,0,11,782577,2010-11-24,true,12:30:31.000,334,
IT,60,0,1157,196822,2010-11-24,true,12:30:15.000,689,
TR,60,0,376,503480,2010-11-24,true,12:30:41.000,427,
TR,60,0,3775,503482,2010-11-24,true,12:30:44.000,455,
IT,60,0,34,196826,2010-11-24,true,12:30:20.000,18172,
AI,60,0,11,782580,2010-11-24,true,12:30:42.000,481,
AA,60,0,5984,644572,2010-11-24,true,12:30:42.000,5401,
TR,60,0,2870,503484,2010-11-24,true,12:30:54.000,469,
IT,60,0,15,196834,2010-11-24,true,12:30:36.000,1954,
IT,60,0,870,196835,2010-11-24,true,12:30:38.000,684,
TR,60,0,3781,503489,2010-11-24,true,12:31:02.000,826,
AI,60,0,10,782582,2010-11-24,true,12:30:56.000,419,
IT,60,0,127,196837,2010-11-24,true,12:30:40.000,6465,
TR,60,0,1756,503490,2010-11-24,true,12:31:04.000,634,
AI,60,0,11,782584,2010-11-24,true,12:31:02.000,5331,
IM,60,0,772,371260,2010-11-24,true,12:33:12.000,405,
TR,60,0,227,503493,2010-11-24,true,12:31:16.000,369,
AI,60,0,11,782588,2010-11-24,true,12:31:15.000,415,
TR,60,0,2831,503498,2010-11-24,true,12:31:26.000,374,
IT,60,0,32,196851,2010-11-24,true,12:31:13.000,6319,
AI,60,0,11,782593,2010-11-24,true,12:31:31.000,5580,
AP,23,0,1186,776553,2010-11-24,true,12:31:33.000,364,
IT,60,0,155,196854,2010-11-24,true,12:31:16.000,943,
IT,60,0,644,196856,2010-11-24,true,12:31:18.000,4580,
TR,60,0,3512,503507,2010-11-24,true,12:31:45.000,430,
TR,60,0,663,503509,2010-11-24,true,12:31:50.000,406,
AI,60,0,11,782595,2010-11-24,true,12:31:48.000,374,
IM,60,0,24,371263,2010-11-24,true,12:33:52.000,374,
AI,60,0,11,782602,2010-11-24,true,12:31:54.000,335,
IT,60,0,644,196863,2010-11-24,true,12:31:36.000,4231,
AA,60,0,2707,644659,2010-11-24,true,12:29:05.000,438,
AA,60,0,6910,644660,2010-11-24,true,12:31:56.000,872,
IT,60,0,181,196866,2010-11-24,true,12:31:42.000,9194,
TR,60,0,3587,503520,2010-11-24,true,12:32:13.000,370,
AA,60,0,4981,644677,2010-11-24,true,12:29:19.000,17638,
AI,60,0,11,782605,2010-11-24,true,12:32:10.000,6145,
TR,60,0,16,503524,2010-11-24,true,12:32:19.000,389,
AA,60,0,4981,644681,2010-11-24,true,12:29:24.000,16661,
IT,60,0,38,196874,2010-11-24,true,12:32:00.000,1512,
IM,60,0,719,371264,2010-11-24,true,12:34:21.000,357,
AP,60,0,9399,776558,2010-11-24,true,12:32:20.000,3692,
AA,60,0,2707,644692,2010-11-24,true,12:29:31.000,505,
IT,60,0,21,196877,2010-11-24,true,12:32:05.000,9309,
AI,60,0,10,782611,2010-11-24,true,12:32:24.000,403,
AA,60,0,1813,644697,2010-11-24,true,12:29:35.000,470,
TR,60,0,1396,503529,2010-11-24,true,12:32:35.000,365,
IT,60,0,21,196879,2010-11-24,true,12:32:12.000,9009,
IT,60,0,38,196880,2010-11-24,true,12:32:13.000,1324,
IT,60,0,1157,196881,2010-11-24,true,12:32:15.000,700,
IT,60,0,821,196882,2010-11-24,true,12:32:15.000,694,
AI,60,0,11,782613,2010-11-24,true,12:32:33.000,368,
IM,60,0,469,371265,2010-11-24,true,12:34:36.000,352,
IM,60,0,172,371267,2010-11-24,true,12:34:38.000,343,
AI,60,0,11,782615,2010-11-24,true,12:32:36.000,6916,
IM,60,0,750,371268,2010-11-24,true,12:34:39.000,1258,
IT,60,0,327,196884,2010-11-24,true,12:32:20.000,4365,
TR,60,0,447,503534,2010-11-24,true,12:32:49.000,517,
TR,60,0,246,503537,2010-11-24,true,12:32:52.000,389,
AA,60,0,2707,644723,2010-11-24,true,12:29:56.000,449,
AA,60,0,5978,644736,2010-11-24,true,12:30:05.000,4224,
IT,60,0,32,196887,2010-11-24,true,12:32:41.000,6101,
AI,60,0,11,782624,2010-11-24,true,12:33:02.000,5523,
AA,60,0,5984,644744,2010-11-24,true,12:33:05.000,5284,
AI,60,0,11,782627,2010-11-24,true,12:33:10.000,486,
AA,60,0,4981,644751,2010-11-24,true,12:30:21.000,16764,
IT,60,0,870,196891,2010-11-24,true,12:32:57.000,724,
AI,60,0,10,782632,2010-11-24,true,12:30:25.000,368,
IT,60,0,32,196892,2010-11-24,true,12:32:59.000,6292,
TR,60,0,50,503544,2010-11-24,true,12:33:24.000,311,
TR,60,0,376,503545,2010-11-24,true,12:33:25.000,394,
TR,60,0,2769,503547,2010-11-24,true,12:33:27.000,438,
TR,60,0,3843,503551,2010-11-24,true,12:33:34.000,330,
IT,60,0,32,196901,2010-11-24,true,12:33:14.000,7280,
IT,60,0,21,196905,2010-11-24,true,12:33:22.000,9501,
AI,60,0,11,782639,2010-11-24,true,12:33:40.000,5486,
AI,60,0,10,782644,2010-11-24,false,12:33:50.000,395, INC: Inconsistencia [SocioNoExistente | false]null
TR,60,0,106,503558,2010-11-24,true,12:33:59.000,569,
AI,60,0,11,782645,2010-11-24,true,12:33:56.000,413,
AI,60,0,10,782649,2010-11-24,true,12:31:09.000,328,
TR,60,0,3907,503564,2010-11-24,true,12:34:06.000,405,
IM,60,0,465,371275,2010-11-24,true,12:36:07.000,420,
AP,24,4,1328,776565,2010-11-24,true,12:34:07.000,375,
TR,60,0,64,503565,2010-11-24,true,12:34:13.000,374,
IT,60,0,32,196915,2010-11-24,true,12:33:51.000,7337,
IM,60,0,387,371276,2010-11-24,false,12:36:11.000,448, INC: Inconsistencia [SocioNoExistente | false]null
AI,60,0,11,782651,2010-11-24,true,12:34:09.000,5236,
TR,60,0,478,503567,2010-11-24,true,12:34:16.000,402,
TR,60,0,1383,503566,2010-11-24,true,12:34:16.000,340,
TR,60,0,246,503571,2010-11-24,true,12:34:20.000,464,
AI,60,0,10,782655,2010-11-24,true,12:34:16.000,323,
AI,60,0,10,782659,2010-11-24,true,12:34:31.000,475,
AA,60,0,2694,644836,2010-11-24,true,12:31:42.000,946,
AA,60,0,5978,644839,2010-11-24,true,12:31:45.000,4225,
AI,60,0,11,782661,2010-11-24,true,12:34:41.000,457,
TR,60,0,3843,503579,2010-11-24,true,12:34:52.000,335,
AI,60,0,10,782663,2010-11-24,true,12:31:57.000,452,
AI,60,0,11,782664,2010-11-24,true,12:34:48.000,5499,
IM,60,0,24,371278,2010-11-24,true,12:36:52.000,401,
AA,60,0,5978,644859,2010-11-24,true,12:32:10.000,3705,
IM,60,0,549,371280,2010-11-24,true,12:37:06.000,356,
AA,60,0,1813,644863,2010-11-24,true,12:32:14.000,392,
AI,60,0,10,782667,2010-11-24,true,12:35:05.000,329,
IT,60,0,27,196939,2010-11-24,true,12:34:54.000,11568,
AA,60,0,4444,644876,2010-11-24,true,12:32:22.000,463,
AA,60,0,2397,644878,2010-11-24,true,12:32:25.000,944,
AA,60,0,520,644889,2010-11-24,true,12:35:26.000,745,
IT,60,0,24,196945,2010-11-24,true,12:35:10.000,810,
AA,60,0,2694,644892,2010-11-24,true,12:32:39.000,748,
IM,60,0,387,371281,2010-11-24,true,12:37:32.000,381,
AI,60,0,10,782674,2010-11-24,true,12:35:36.000,327,
TR,60,0,1233,503596,2010-11-24,true,12:35:43.000,377,
AP,60,0,9788,776579,2010-11-24,true,12:35:41.000,354,
IT,60,0,40,196954,2010-11-24,true,12:35:23.000,2137,
IT,60,0,21,196955,2010-11-24,true,12:35:23.000,9410,
IT,60,0,24,196957,2010-11-24,true,12:35:27.000,766,
AI,60,0,10,782675,2010-11-24,true,12:32:55.000,414,
IT,60,0,870,196958,2010-11-24,true,12:35:31.000,683,
AA,60,0,5984,644903,2010-11-24,true,12:35:49.000,5442,
AI,60,0,10,782678,2010-11-24,true,12:35:56.000,392,
TR,60,0,3992,503601,2010-11-24,true,12:36:05.000,1025,
IT,60,0,1157,196967,2010-11-24,true,12:35:42.000,595,
IM,60,0,54,371282,2010-11-24,true,12:38:03.000,657,
IT,60,0,32,196968,2010-11-24,true,12:35:44.000,6683,
AI,60,0,11,782681,2010-11-24,true,12:36:02.000,377,
AA,60,0,5984,644924,2010-11-24,true,12:36:07.000,6089,
IM,60,0,745,371283,2010-11-24,true,12:38:10.000,1354,
AA,60,0,2694,644928,2010-11-24,true,12:33:21.000,813,
IT,60,0,21,196974,2010-11-24,true,12:35:54.000,10081,
TR,60,0,3587,503607,2010-11-24,true,12:36:18.000,497,
TR,60,0,478,503608,2010-11-24,true,12:36:19.000,389,
IM,60,0,490,371284,2010-11-24,true,12:38:17.000,370,
IM,60,0,350,371285,2010-11-24,true,12:38:18.000,623,
IT,60,0,644,196976,2010-11-24,true,12:36:01.000,6246,
IM,60,0,750,371286,2010-11-24,true,12:38:29.000,1249,
AI,60,0,10,782685,2010-11-24,true,12:33:36.000,360,
IM,60,0,546,371287,2010-11-24,true,12:38:31.000,368,
TR,60,0,3732,503613,2010-11-24,true,12:36:36.000,439,
AA,60,0,6910,644945,2010-11-24,true,12:36:32.000,894,
AA,60,0,2694,644946,2010-11-24,true,12:33:42.000,839,
IT,60,0,40,196982,2010-11-24,true,12:36:15.000,2230,
AI,60,0,10,782687,2010-11-24,true,12:36:34.000,384,
TR,60,0,135,503615,2010-11-24,true,12:36:42.000,384,
TR,60,0,879,503616,2010-11-24,true,12:36:44.000,344,
AP,60,0,9353,776585,2010-11-24,true,12:36:41.000,349,
IM,60,0,310,371288,2010-11-24,true,12:38:44.000,313,
TR,60,0,771,503620,2010-11-24,true,12:36:48.000,337,
IM,60,0,502,371289,2010-11-24,true,12:38:47.000,428,
AA,60,0,1011,644959,2010-11-24,true,12:33:53.000,1226,
TR,60,0,3987,503622,2010-11-24,true,12:36:51.000,357,
TR,60,0,3907,503623,2010-11-24,true,12:36:52.000,407,
TR,60,0,3743,503624,2010-11-24,true,12:36:54.000,398,
AI,60,0,11,782691,2010-11-24,true,12:36:59.000,373,
IT,60,0,32,196992,2010-11-24,true,12:36:42.000,6257,
IT,60,0,15,196993,2010-11-24,true,12:36:44.000,1892,
IM,60,0,524,371290,2010-11-24,true,12:39:06.000,1429,
AI,60,0,10,782696,2010-11-24,true,12:34:20.000,389,
TR,60,0,16,503633,2010-11-24,true,12:37:18.000,319,
AA,60,0,5978,644994,2010-11-24,true,12:34:23.000,3817,
AI,60,0,10,782698,2010-11-24,true,12:34:24.000,302,
AI,60,0,10,782699,2010-11-24,true,12:37:19.000,311,
IT,60,0,327,197000,2010-11-24,true,12:37:16.000,4997,
AA,60,0,5978,645014,2010-11-24,true,12:34:48.000,3664,
TR,60,0,2632,503644,2010-11-24,true,12:37:48.000,384,
TR,60,0,663,503645,2010-11-24,true,12:37:49.000,354,
AI,60,0,10,782704,2010-11-24,true,12:34:59.000,473,
IT,60,0,50,197010,2010-11-24,true,12:37:33.000,5632,
TR,60,0,879,503649,2010-11-24,true,12:37:59.000,4589,
TR,60,0,2582,503651,2010-11-24,true,12:38:00.000,921,
AI,60,0,10,782705,2010-11-24,true,12:37:59.000,319,
AI,60,0,10,782706,2010-11-24,true,12:35:10.000,323,
TR,60,0,4115,503655,2010-11-24,true,12:38:06.000,347,
IT,60,0,32,197014,2010-11-24,true,12:37:43.000,6730,
IM,60,0,739,371293,2010-11-24,true,12:40:03.000,1770,
AI,60,0,11,782707,2010-11-24,true,12:38:01.000,412,
IT,60,0,24,197015,2010-11-24,true,12:37:45.000,764,
TR,60,0,385,503656,2010-11-24,true,12:38:10.000,342,
TR,60,0,38,503658,2010-11-24,true,12:38:14.000,389,
TR,60,0,216,503661,2010-11-24,true,12:38:17.000,379,
IT,60,0,37,197021,2010-11-24,true,12:37:54.000,11542,
IM,60,0,536,371296,2010-11-24,true,12:40:15.000,374,
AA,60,0,5984,645038,2010-11-24,true,12:38:14.000,11000,
AI,60,0,11,782711,2010-11-24,true,12:38:15.000,383,
TR,60,0,4098,503665,2010-11-24,false,12:38:26.000,359, INC: Inconsistencia [SocioNoExistente | false]null
TR,60,0,1760,503666,2010-11-24,true,12:38:26.000,386,
TR,60,0,430,503668,2010-11-24,true,12:38:27.000,784,
IT,60,0,32,197025,2010-11-24,true,12:38:15.000,6410,
IT,60,0,51,197026,2010-11-24,true,12:38:17.000,677,
AA,60,0,520,645061,2010-11-24,true,12:38:38.000,606,
TR,60,0,2812,503677,2010-11-24,true,12:38:56.000,838,
AA,60,0,1820,645074,2010-11-24,true,12:36:02.000,7699,
IT,60,0,786,197030,2010-11-24,true,12:38:35.000,452,
AI,60,0,11,782717,2010-11-24,true,12:38:55.000,397,
TR,60,0,436,503680,2010-11-24,true,12:39:05.000,529,
IT,60,0,32,197033,2010-11-24,true,12:38:42.000,9419,
IT,60,0,870,197034,2010-11-24,true,12:38:43.000,679,
AI,60,0,10,782723,2010-11-24,true,12:39:08.000,468,
IT,60,0,53,197041,2010-11-24,true,12:38:55.000,2773,
IM,60,0,120,371299,2010-11-24,true,12:41:15.000,342,
AI,60,0,10,782727,2010-11-24,true,12:36:26.000,409,
AI,60,0,11,782728,2010-11-24,true,12:39:18.000,396,
TR,60,0,90,503687,2010-11-24,true,12:39:24.000,409,
TR,60,0,1262,503689,2010-11-24,true,12:39:25.000,441,
TR,60,0,64,503692,2010-11-24,true,12:39:30.000,412,
TR,60,0,4098,503694,2010-11-24,true,12:39:31.000,394,
IT,60,0,181,197052,2010-11-24,true,12:39:11.000,9969,
IT,60,0,36,197053,2010-11-24,true,12:39:12.000,5101,
TR,60,0,21,503695,2010-11-24,true,12:39:35.000,697,
AI,60,0,10,782730,2010-11-24,true,12:39:30.000,487,
TR,60,0,3743,503698,2010-11-24,true,12:39:41.000,355,
TR,60,0,227,503700,2010-11-24,true,12:39:43.000,414,
TR,60,0,478,503701,2010-11-24,true,12:39:48.000,344,
IM,60,0,16,371300,2010-11-24,true,12:41:51.000,356,
IM,60,0,116,371301,2010-11-24,true,12:41:52.000,379,
IT,60,0,24,197060,2010-11-24,true,12:39:35.000,765,
TR,60,0,2812,503706,2010-11-24,true,12:40:00.000,829,
TR,60,0,3998,503708,2010-11-24,true,12:40:03.000,363,
AI,60,0,11,782734,2010-11-24,true,12:39:59.000,316,
IT,60,0,24,197065,2010-11-24,true,12:39:47.000,620,
IT,60,0,24,197069,2010-11-24,true,12:39:53.000,628,
IT,60,0,127,197070,2010-11-24,true,12:39:53.000,5750,
IM,60,0,105,371303,2010-11-24,true,12:42:18.000,458,
AA,60,0,6910,645141,2010-11-24,true,12:40:17.000,825,
AI,60,0,11,782737,2010-11-24,true,12:40:17.000,325,
IT,60,0,51,197072,2010-11-24,true,12:40:04.000,626,
TR,60,0,3563,503717,2010-11-24,true,12:40:33.000,383,
TR,60,0,3876,503718,2010-11-24,true,12:40:36.000,421,
TR,60,0,3998,503724,2010-11-24,true,12:40:42.000,580,
TR,60,0,436,503725,2010-11-24,true,12:40:44.000,496,
IT,11,0,526,197077,2010-11-24,true,12:40:28.000,318,
AI,60,0,11,782740,2010-11-24,true,12:37:56.000,305,
AA,60,0,289,645170,2010-11-24,true,12:37:57.000,3187,
TR,60,0,207,503729,2010-11-24,true,12:40:54.000,403,
TR,60,0,142,503730,2010-11-24,true,12:40:55.000,292,
AI,60,0,10,782741,2010-11-24,true,12:38:01.000,336,
TR,60,0,3405,503731,2010-11-24,false,12:41:03.000,371, INC: Inconsistencia [SocioNoExistente | false]null
TR,60,0,108,503734,2010-11-24,true,12:41:11.000,352,
IT,60,0,32,197085,2010-11-24,true,12:40:47.000,6149,
IT,60,0,155,197087,2010-11-24,true,12:40:48.000,833,
IT,60,0,32,197089,2010-11-24,true,12:40:53.000,6562,
IT,60,0,24,197090,2010-11-24,true,12:40:53.000,701,
IT,60,0,155,197091,2010-11-24,true,12:40:54.000,788,
AA,60,0,520,645193,2010-11-24,true,12:41:14.000,640,
TR,60,0,789,503735,2010-11-24,true,12:41:22.000,384,
IM,60,0,739,371307,2010-11-24,true,12:43:20.000,1212,
AI,60,0,10,782747,2010-11-24,true,12:41:21.000,475,
AI,60,0,11,782748,2010-11-24,true,12:41:23.000,322,
IT,60,0,21,197102,2010-11-24,true,12:41:13.000,9202,
TR,60,0,468,503745,2010-11-24,true,12:41:40.000,405,
TR,60,0,3405,503746,2010-11-24,true,12:41:40.000,364,
AA,60,0,5984,645220,2010-11-24,true,12:41:38.000,4991,
AA,60,0,6910,645222,2010-11-24,true,12:41:40.000,869,
IT,60,0,38,197104,2010-11-24,true,12:41:29.000,1422,
TR,60,0,449,503750,2010-11-24,true,12:41:52.000,380,
IT,60,0,24,197105,2010-11-24,true,12:41:30.000,642,
TR,60,0,2951,503754,2010-11-24,true,12:41:55.000,626,
AI,60,0,11,782752,2010-11-24,true,12:39:07.000,419,
TR,60,0,21,503757,2010-11-24,true,12:42:04.000,690,
IT,60,0,27,197110,2010-11-24,true,12:41:45.000,12411,
AA,60,0,5984,645248,2010-11-24,true,12:42:04.000,5427,
AI,60,0,10,782755,2010-11-24,true,12:42:08.000,443,
TR,60,0,376,503763,2010-11-24,true,12:42:17.000,414,
IT,60,0,53,197118,2010-11-24,true,12:41:59.000,2799,
IT,60,0,32,197117,2010-11-24,true,12:41:58.000,6145,
IT,60,0,38,197119,2010-11-24,true,12:42:02.000,1413,
AP,60,0,9399,776604,2010-11-24,true,12:42:21.000,3835,
IM,60,0,743,371309,2010-11-24,true,12:44:29.000,403,
AI,60,0,10,782758,2010-11-24,true,12:39:38.000,376,
TR,60,0,4008,503769,2010-11-24,true,12:42:35.000,370,
IT,11,0,1230,197124,2010-11-24,true,12:42:12.000,302,
IT,60,0,38,197125,2010-11-24,false,12:42:14.000,1468, INC: Inconsistencia [PrestacionNoContratada | false]null
IM,60,0,61,371311,2010-11-24,true,12:44:34.000,380,
IT,60,0,21,197129,2010-11-24,true,12:42:19.000,9670,
IT,60,0,870,197130,2010-11-24,true,12:42:19.000,692,
IT,60,0,127,197132,2010-11-24,true,12:42:22.000,6304,
TR,60,0,112,503775,2010-11-24,true,12:42:50.000,377,
TR,60,0,1396,503777,2010-11-24,true,12:42:52.000,338,
TR,60,0,2597,503778,2010-11-24,true,12:42:52.000,338,
TR,60,0,51,503779,2010-11-24,true,12:42:55.000,308,
AA,23,0,35,645283,2010-11-24,true,12:39:59.000,541,
TR,60,0,663,503780,2010-11-24,true,12:42:56.000,386,
AI,60,0,11,782764,2010-11-24,true,12:40:01.000,388,
IT,60,0,644,197134,2010-11-24,true,12:42:35.000,4464,
IT,60,0,327,197135,2010-11-24,true,12:42:36.000,9326,
AI,60,0,10,782766,2010-11-24,true,12:40:06.000,901,
AI,60,0,11,782768,2010-11-24,false,12:40:10.000,405, INC: Inconsistencia [SocioNoExistente | false]null
TR,60,0,2832,503785,2010-11-24,true,12:43:07.000,468,
AA,60,0,4981,645300,2010-11-24,true,12:40:12.000,22474,
TR,60,0,246,503786,2010-11-24,true,12:43:08.000,523,
AP,60,0,9399,776609,2010-11-24,true,12:43:03.000,3998,
IT,60,0,38,197141,2010-11-24,false,12:42:48.000,1550, INC: Inconsistencia [PrestacionNoContratada | false]null
TR,60,0,1524,503787,2010-11-24,true,12:43:12.000,387,
AA,60,0,2397,645309,2010-11-24,true,12:40:19.000,843,
AI,60,0,11,782770,2010-11-24,true,12:40:24.000,426,
IT,60,0,32,197144,2010-11-24,true,12:42:59.000,6211,
AA,60,0,5984,645324,2010-11-24,true,12:43:25.000,5179,
AP,23,0,20,776613,2010-11-24,true,12:43:26.000,384,
AA,60,0,4055,645327,2010-11-24,true,12:40:37.000,424,
TR,60,0,3795,503796,2010-11-24,true,12:43:33.000,496,
TR,60,0,2700,503797,2010-11-24,true,12:43:34.000,434,
IT,60,0,21,197149,2010-11-24,true,12:43:10.000,10271,
AI,60,0,11,782775,2010-11-24,true,12:40:45.000,588,
TR,60,0,436,503800,2010-11-24,true,12:43:41.000,443,
TR,60,0,254,503801,2010-11-24,true,12:43:43.000,355,
TR,60,0,50,503806,2010-11-24,true,12:43:53.000,365,
IT,60,0,821,197157,2010-11-24,true,12:43:30.000,689,
IT,60,0,38,197158,2010-11-24,true,12:43:32.000,1344,
AI,60,0,10,782779,2010-11-24,true,12:43:53.000,365,
TR,60,0,2916,503807,2010-11-24,true,12:43:59.000,364,
IT,60,0,155,197161,2010-11-24,true,12:43:37.000,907,
AI,60,0,11,782780,2010-11-24,true,12:41:04.000,455,
AI,60,0,10,782782,2010-11-24,true,12:41:06.000,368,
AA,60,0,5984,645362,2010-11-24,true,12:43:57.000,4831,
TR,60,0,2426,503812,2010-11-24,true,12:44:03.000,387,
AI,60,0,11,782784,2010-11-24,true,12:41:12.000,390,
IM,60,0,756,371313,2010-11-24,true,12:46:05.000,424,
AP,23,0,1186,776619,2010-11-24,true,12:44:10.000,362,
AI,60,0,10,782786,2010-11-24,true,12:44:12.000,662,
IT,60,0,155,197175,2010-11-24,true,12:43:59.000,854,
IT,60,0,36,197177,2010-11-24,true,12:44:03.000,5265,
TR,60,0,2610,503822,2010-11-24,true,12:44:29.000,361,
AI,60,0,11,782790,2010-11-24,true,12:41:34.000,346,
TR,60,0,64,503825,2010-11-24,true,12:44:36.000,323,
TR,60,0,163,503828,2010-11-24,true,12:44:41.000,331,
IT,60,0,37,197183,2010-11-24,true,12:44:18.000,11561,
IT,60,0,32,197184,2010-11-24,true,12:44:19.000,6434,
IM,60,0,58,371315,2010-11-24,true,12:46:47.000,349,
IT,60,0,21,197187,2010-11-24,true,12:44:27.000,10532,
AA,23,0,35,645419,2010-11-24,true,12:41:59.000,605,
IT,60,0,644,197190,2010-11-24,true,12:44:32.000,4755,
IT,60,0,36,197191,2010-11-24,true,12:44:35.000,5169,
AI,60,0,11,782793,2010-11-24,true,12:42:03.000,396,
IM,60,0,478,371317,2010-11-24,true,12:46:57.000,398,
AP,23,0,1186,776621,2010-11-24,true,12:44:56.000,363,
AA,60,0,4981,645433,2010-11-24,true,12:42:11.000,16535,
IT,60,0,32,197198,2010-11-24,true,12:44:50.000,6903,
AI,60,0,11,782796,2010-11-24,true,12:45:10.000,384,
AI,60,0,11,782797,2010-11-24,true,12:42:22.000,359,
IT,60,0,32,197206,2010-11-24,true,12:45:06.000,6345,
AA,60,0,720,645454,2010-11-24,true,12:42:37.000,4495,
IT,60,0,27,197209,2010-11-24,true,12:45:13.000,21091,
AI,60,0,11,782802,2010-11-24,true,12:42:42.000,416,
IT,60,0,21,197218,2010-11-24,true,12:45:27.000,17271,
IT,60,0,155,197220,2010-11-24,true,12:45:29.000,1357,
TR,60,0,1254,503845,2010-11-24,true,12:45:52.000,781,
TR,60,0,3408,503846,2010-11-24,true,12:45:55.000,473,
AI,60,0,11,782807,2010-11-24,true,12:45:54.000,588,
AI,60,0,11,782808,2010-11-24,true,12:43:05.000,453,
IT,60,0,644,197223,2010-11-24,true,12:45:39.000,8902,
IT,60,0,1094,197225,2010-11-24,true,12:45:41.000,590,
AI,60,0,11,782811,2010-11-24,true,12:46:10.000,447,
AA,60,0,4055,645517,2010-11-24,false,12:43:24.000,494, INC: Inconsistencia [PrestacionNoContratada | false]null
IM,60,0,40,371318,2010-11-24,true,12:48:16.000,364,
TR,60,0,754,503858,2010-11-24,true,12:46:26.000,384,
TR,60,0,289,503859,2010-11-24,true,12:46:27.000,400,
AI,60,0,10,782817,2010-11-24,true,12:46:24.000,353,
TR,60,0,410,503860,2010-11-24,true,12:46:32.000,339,
IT,60,0,327,197243,2010-11-24,true,12:46:18.000,4687,
TR,60,0,2916,503866,2010-11-24,true,12:46:47.000,401,
AI,60,0,11,782820,2010-11-24,true,12:46:43.000,359,
TR,60,0,2868,503871,2010-11-24,true,12:46:54.000,516,
TR,60,0,841,503873,2010-11-24,true,12:46:57.000,334,
AA,60,0,5984,645575,2010-11-24,true,12:46:54.000,8615,
TR,60,0,2832,503875,2010-11-24,true,12:47:02.000,481,
IM,60,0,33,371319,2010-11-24,true,12:48:59.000,749,
AI,60,0,10,782825,2010-11-24,false,12:47:04.000,346, INC: Inconsistencia [SocioNoExistente | false]null
TR,60,0,444,503883,2010-11-24,true,12:47:14.000,326,
AI,60,0,11,782827,2010-11-24,true,12:47:13.000,534,
AA,60,0,5984,645610,2010-11-24,true,12:47:23.000,4573,
IT,60,0,38,197266,2010-11-24,true,12:47:09.000,1315,
TR,60,0,233,503892,2010-11-24,true,12:47:34.000,363,
AA,60,0,2401,645627,2010-11-24,true,12:44:46.000,1792,
AI,60,0,10,782833,2010-11-24,true,12:44:50.000,415,
IT,60,0,32,197274,2010-11-24,true,12:47:23.000,6770,
TR,60,0,444,503895,2010-11-24,true,12:47:48.000,333,
IT,60,0,38,197277,2010-11-24,true,12:47:26.000,1880,
IT,60,0,51,197280,2010-11-24,true,12:47:33.000,1053,
TR,60,0,3732,503897,2010-11-24,true,12:47:58.000,382,
IT,60,0,38,197282,2010-11-24,true,12:47:40.000,1291,
TR,60,0,815,503900,2010-11-24,true,12:48:03.000,412,
AA,60,0,5984,645656,2010-11-24,true,12:47:59.000,6698,
AI,60,0,10,782838,2010-11-24,true,12:45:14.000,387,
IT,60,0,327,197288,2010-11-24,true,12:47:47.000,5499,
IT,60,0,38,197293,2010-11-24,true,12:47:54.000,1381,
TR,60,0,92,503904,2010-11-24,true,12:48:18.000,464,
AA,60,0,2694,645673,2010-11-24,true,12:45:24.000,898,
TR,60,0,246,503906,2010-11-24,true,12:48:23.000,458,
IM,60,0,490,371326,2010-11-24,true,12:50:26.000,615,
IT,60,0,38,197295,2010-11-24,true,12:48:07.000,1355,
IT,60,0,878,197297,2010-11-24,true,12:48:14.000,701,
IT,60,0,40,197298,2010-11-24,true,12:48:15.000,2551,
IM,60,0,499,371327,2010-11-24,true,12:50:41.000,579,
IT,60,0,32,197302,2010-11-24,true,12:48:25.000,6830,
IT,60,0,13,197304,2010-11-24,true,12:48:32.000,2739,
AA,60,0,5984,645709,2010-11-24,true,12:48:59.000,5174,
AA,23,0,791,645710,2010-11-24,true,12:46:09.000,1397,
IT,60,0,40,197310,2010-11-24,true,12:48:45.000,2107,
IT,60,0,38,197311,2010-11-24,true,12:48:45.000,1364,
AA,60,0,40,645722,2010-11-24,true,12:46:19.000,9965,
AI,60,0,11,782851,2010-11-24,true,12:49:12.000,390,
AI,60,0,11,782853,2010-11-24,true,12:46:29.000,448,
IT,60,0,1094,197324,2010-11-24,true,12:49:10.000,693,
IT,60,0,13,197326,2010-11-24,true,12:49:12.000,2693,
AI,60,0,10,782855,2010-11-24,true,12:49:31.000,367,
AI,60,0,11,782857,2010-11-24,true,12:49:35.000,602,
AA,60,0,2401,645757,2010-11-24,true,12:46:49.000,1878,
AA,60,0,1813,645760,2010-11-24,false,12:46:51.000,620, INC: Inconsistencia [SocioNoExistente | false]null
AA,60,0,1011,645763,2010-11-24,true,12:46:53.000,1332,
AI,60,0,11,782861,2010-11-24,true,12:49:52.000,359,
IT,60,0,40,197337,2010-11-24,true,12:49:41.000,2963,
IT,60,0,327,197339,2010-11-24,true,12:49:42.000,4324,
TR,60,0,3757,503924,2010-11-24,true,12:50:05.000,364,
IM,60,0,239,371331,2010-11-24,true,12:52:03.000,561,
IT,60,0,32,197345,2010-11-24,true,12:49:47.000,6573,
IM,60,0,490,371332,2010-11-24,true,12:52:08.000,384,
AI,60,0,10,782862,2010-11-24,true,12:50:09.000,398,
AI,60,0,10,782863,2010-11-24,true,12:50:12.000,335,
TR,60,0,3827,503932,2010-11-24,true,12:50:19.000,418,
AI,60,0,11,782864,2010-11-24,true,12:50:16.000,358,
AA,60,0,1813,645792,2010-11-24,true,12:47:27.000,401,
TR,60,0,1764,503933,2010-11-24,true,12:50:27.000,454,
TR,60,0,285,503934,2010-11-24,true,12:50:30.000,312,
IT,60,0,878,197353,2010-11-24,true,12:50:15.000,578,
AA,60,0,4444,645811,2010-11-24,true,12:47:46.000,371,
TR,60,0,2426,503940,2010-11-24,true,12:50:45.000,382,
AI,60,0,11,782868,2010-11-24,true,12:47:52.000,381,
IT,60,0,21,197360,2010-11-24,true,12:50:29.000,9291,
AI,60,0,10,782869,2010-11-24,true,12:50:52.000,301,
AI,60,0,11,782870,2010-11-24,true,12:50:53.000,360,
IT,11,0,526,197362,2010-11-24,true,12:50:36.000,325,
IT,60,0,28,197366,2010-11-24,true,12:50:37.000,11360,
IT,60,0,32,197367,2010-11-24,true,12:50:38.000,6446,
IT,60,0,38,197369,2010-11-24,true,12:50:43.000,1395,
IT,60,0,32,197371,2010-11-24,true,12:50:44.000,6770,
AA,60,0,720,645838,2010-11-24,true,12:48:14.000,4324,
AA,60,0,6910,645842,2010-11-24,true,12:51:11.000,898,
IT,60,0,38,197374,2010-11-24,true,12:50:55.000,1293,
IT,60,0,13,197376,2010-11-24,true,12:50:59.000,2786,
TR,60,0,3611,503949,2010-11-24,true,12:51:23.000,723,
IT,60,0,32,197381,2010-11-24,true,12:51:06.000,8364,
IT,60,0,32,197382,2010-11-24,true,12:51:07.000,7789,
TR,60,0,1306,503953,2010-11-24,true,12:51:31.000,1010,
AA,60,0,5978,645853,2010-11-24,true,12:48:37.000,4720,
IT,11,0,526,197385,2010-11-24,true,12:51:15.000,318,
AI,60,0,10,782878,2010-11-24,true,12:51:34.000,434,
TR,60,0,478,503957,2010-11-24,true,12:51:41.000,720,
AI,60,0,10,782881,2010-11-24,true,12:51:36.000,501,
AI,60,0,11,782880,2010-11-24,true,12:51:36.000,579,
AA,60,0,6911,645867,2010-11-24,true,12:51:40.000,1042,
IT,60,0,53,197390,2010-11-24,true,12:51:26.000,3135,
AA,60,0,5984,645869,2010-11-24,true,12:51:44.000,5825,
IM,60,0,490,371334,2010-11-24,true,12:53:46.000,521,
IT,60,0,38,197392,2010-11-24,true,12:51:29.000,1439,
TR,60,0,175,503960,2010-11-24,true,12:51:56.000,359,
AA,60,0,5984,645879,2010-11-24,true,12:51:52.000,6057,
IM,60,0,358,371336,2010-11-24,true,12:53:54.000,415,
IM,60,0,22,371337,2010-11-24,true,12:53:55.000,436,
AA,60,0,1813,645890,2010-11-24,true,12:49:13.000,529,
AA,60,0,5984,645896,2010-11-24,true,12:52:07.000,7787,
AI,60,0,11,782887,2010-11-24,true,12:52:10.000,361,
AI,60,0,10,782888,2010-11-24,true,12:52:13.000,454,
AI,60,0,11,782889,2010-11-24,true,12:52:18.000,359,
AI,60,0,10,782890,2010-11-24,true,12:52:26.000,360,
AI,60,0,10,782891,2010-11-24,true,12:52:26.000,364,
IT,60,0,1094,197410,2010-11-24,true,12:52:10.000,560,
TR,60,0,3990,503973,2010-11-24,true,12:52:36.000,666,
TR,60,0,2874,503974,2010-11-24,true,12:52:37.000,651,
AA,60,0,2707,645927,2010-11-24,true,12:49:42.000,350,
IM,60,0,465,371341,2010-11-24,true,12:54:41.000,379,
TR,60,0,4192,503976,2010-11-24,true,12:52:52.000,346,
IT,60,0,32,197421,2010-11-24,true,12:52:29.000,5801,
AA,60,0,5555,645947,2010-11-24,true,12:49:59.000,439,
IT,60,0,32,197424,2010-11-24,true,12:52:35.000,5900,
IM,60,0,478,371342,2010-11-24,true,12:55:02.000,566,
IT,60,0,40,197426,2010-11-24,true,12:52:45.000,2004,
AI,60,0,10,782901,2010-11-24,true,12:53:03.000,406,
AI,60,0,10,782902,2010-11-24,true,12:53:07.000,302,
TR,60,0,69,503990,2010-11-24,true,12:53:22.000,356,
AA,60,0,2372,645974,2010-11-24,true,12:50:29.000,644,
IT,60,0,36,197433,2010-11-24,true,12:53:06.000,5995,
IT,60,0,32,197435,2010-11-24,true,12:53:18.000,5778,
TR,60,0,233,503996,2010-11-24,true,12:53:42.000,429,
IT,60,0,13,197438,2010-11-24,true,12:53:21.000,2464,
AA,60,0,2694,645993,2010-11-24,true,12:50:50.000,852,
AA,60,0,5978,645996,2010-11-24,true,12:50:50.000,3856,
AI,60,0,10,782908,2010-11-24,true,12:53:42.000,363,
IT,60,0,32,197441,2010-11-24,true,12:53:25.000,5640,
AI,60,0,10,782909,2010-11-24,true,12:50:53.000,427,
AA,60,0,5984,645999,2010-11-24,true,12:53:46.000,4783,
AI,60,0,10,782910,2010-11-24,true,12:53:45.000,299,
TR,60,0,436,504000,2010-11-24,true,12:53:56.000,468,
AI,60,0,11,782912,2010-11-24,true,12:51:02.000,379,
TR,60,0,3795,504002,2010-11-24,true,12:54:00.000,520,
TR,60,0,2689,504001,2010-11-24,true,12:54:00.000,449,
TR,60,0,3916,504005,2010-11-24,true,12:54:02.000,396,
IT,60,0,35,197447,2010-11-24,true,12:53:39.000,3004,
IM,60,0,750,371346,2010-11-24,true,12:56:00.000,1323,
AI,60,0,11,782917,2010-11-24,true,12:54:01.000,355,
AA,60,0,6031,646023,2010-11-24,true,12:51:20.000,962,
IT,60,0,51,197451,2010-11-24,true,12:53:52.000,766,
IT,60,0,24,197452,2010-11-24,true,12:53:53.000,850,
TR,60,0,291,504011,2010-11-24,true,12:54:17.000,370,
AA,60,0,4981,646028,2010-11-24,true,12:51:23.000,16310,
AA,60,0,3180,646031,2010-11-24,true,12:51:26.000,1670,
IT,60,0,38,197459,2010-11-24,true,12:54:12.000,1376,
AA,60,0,3813,646044,2010-11-24,true,12:51:39.000,7384,
AA,60,0,5984,646054,2010-11-24,true,12:54:43.000,5114,
IT,60,0,38,197460,2010-11-24,true,12:54:25.000,1665,
IT,60,0,51,197461,2010-11-24,true,12:54:26.000,621,
TR,60,0,3795,504025,2010-11-24,true,12:54:51.000,565,
IT,60,0,327,197463,2010-11-24,true,12:54:31.000,7241,
IT,60,0,51,197464,2010-11-24,true,12:54:31.000,802,
TR,60,0,430,504026,2010-11-24,true,12:54:58.000,800,
AA,60,0,5984,646062,2010-11-24,true,12:54:54.000,7404,
IT,60,0,38,197466,2010-11-24,true,12:54:37.000,2422,
IT,60,0,38,197469,2010-11-24,true,12:54:41.000,1750,
TR,60,0,291,504028,2010-11-24,true,12:55:09.000,379,
TR,60,0,28,504029,2010-11-24,true,12:55:09.000,548,
AI,60,0,10,782929,2010-11-24,true,12:52:18.000,481,
IT,60,0,38,197471,2010-11-24,true,12:54:53.000,1319,
IT,60,0,327,197475,2010-11-24,true,12:54:58.000,6301,
IT,60,0,53,197474,2010-11-24,true,12:54:58.000,2616,
IT,60,0,53,197479,2010-11-24,true,12:55:04.000,3461,
IT,60,0,38,197481,2010-11-24,true,12:55:07.000,1312,
IT,60,0,160,197482,2010-11-24,true,12:55:10.000,440,
AA,60,0,6910,646101,2010-11-24,true,12:55:29.000,835,
TR,60,0,436,504036,2010-11-24,true,12:55:38.000,1032,
IT,60,0,38,197484,2010-11-24,true,12:55:18.000,1223,
TR,60,0,2965,504039,2010-11-24,true,12:55:45.000,895,
AA,60,0,5984,646109,2010-11-24,true,12:55:41.000,5514,
TR,60,0,3827,504042,2010-11-24,true,12:55:52.000,412,
TR,60,0,2426,504048,2010-11-24,true,12:56:00.000,390,
IT,60,0,13,197489,2010-11-24,true,12:55:43.000,2373,
TR,60,0,3728,504054,2010-11-24,true,12:56:11.000,371,
AA,60,0,1820,646133,2010-11-24,true,12:53:18.000,7747,
TR,60,0,3408,504056,2010-11-24,true,12:56:17.000,390,
AA,60,0,5984,646141,2010-11-24,true,12:56:15.000,4675,
IM,60,0,549,371349,2010-11-24,true,12:58:21.000,376,
TR,60,0,522,504061,2010-11-24,true,12:56:26.000,366,
TR,60,0,108,504062,2010-11-24,true,12:56:27.000,396,
IT,60,0,24,197494,2010-11-24,true,12:56:11.000,787,
AA,60,0,3180,646158,2010-11-24,true,12:53:41.000,1573,
IT,60,0,32,197497,2010-11-24,true,12:56:20.000,6116,
AI,60,0,10,782944,2010-11-24,true,12:56:38.000,447,
IT,60,0,21,197498,2010-11-24,true,12:56:20.000,9166,
TR,60,0,3815,504068,2010-11-24,false,12:56:46.000,460, INC: Inconsistencia [PrestacionNoContratada | false]null
IT,60,0,40,197499,2010-11-24,true,12:56:24.000,2191,
TR,60,0,935,504070,2010-11-24,true,12:56:50.000,347,
TR,60,0,232,504073,2010-11-24,true,12:56:52.000,406,
TR,60,0,250,504074,2010-11-24,true,12:56:52.000,360,
AA,60,0,5984,646174,2010-11-24,true,12:56:49.000,4961,
IT,60,0,21,197505,2010-11-24,true,12:56:36.000,13413,
IT,60,0,155,197507,2010-11-24,true,12:56:40.000,958,
IM,60,0,108,371353,2010-11-24,true,12:59:12.000,420,
AI,60,0,10,782947,2010-11-24,true,12:57:14.000,414,
IT,60,0,1208,197517,2010-11-24,true,12:57:05.000,448,
AA,60,0,6910,646206,2010-11-24,true,12:57:23.000,879,
IT,60,0,38,197518,2010-11-24,true,12:57:06.000,1319,
TR,60,0,3408,504086,2010-11-24,true,12:57:29.000,2400,
IT,60,0,127,197519,2010-11-24,true,12:57:08.000,7499,
AI,60,0,10,782949,2010-11-24,true,12:57:28.000,419,
TR,60,0,1251,504090,2010-11-24,true,12:57:34.000,379,
IT,60,0,21,197523,2010-11-24,true,12:57:11.000,9446,
AP,11,0,9937,776683,2010-11-24,true,12:57:32.000,338,
IM,60,0,131,371356,2010-11-24,true,12:59:38.000,386,
IT,60,0,13,197525,2010-11-24,true,12:57:20.000,2794,
IT,60,0,155,197527,2010-11-24,true,12:57:31.000,828,
TR,60,0,1914,504100,2010-11-24,true,12:58:02.000,411,
TR,60,0,109,504102,2010-11-24,true,12:58:03.000,358,
TR,60,0,2800,504107,2010-11-24,true,12:58:10.000,345,
IT,60,0,40,197535,2010-11-24,true,12:57:50.000,2007,
IT,60,0,327,197537,2010-11-24,true,12:57:54.000,4441,
IM,60,0,731,371358,2010-11-24,true,13:00:18.000,5139,
TR,60,0,935,504117,2010-11-24,true,12:58:29.000,336,
AI,60,0,10,782963,2010-11-24,true,12:58:23.000,331,
IT,60,0,32,197546,2010-11-24,true,12:58:08.000,8316,
IT,60,0,15,197547,2010-11-24,true,12:58:08.000,2077,
TR,60,0,2975,504120,2010-11-24,true,12:58:31.000,531,
IT,60,0,32,197552,2010-11-24,true,12:58:26.000,5778,
AI,60,0,10,782969,2010-11-24,true,12:58:43.000,367,
IT,60,0,15,197553,2010-11-24,true,12:58:27.000,1632,
AA,60,0,2694,646285,2010-11-24,true,12:56:03.000,870,
IM,60,0,515,371364,2010-11-24,false,13:01:00.000,380, INC: Inconsistencia [SocioNoExistente | false]null
TR,60,0,2689,504131,2010-11-24,true,12:59:05.000,326,
IM,60,0,490,371365,2010-11-24,true,13:01:04.000,438,
TR,60,0,227,504133,2010-11-24,true,12:59:09.000,435,
AA,60,0,6910,646305,2010-11-24,true,12:59:11.000,898,
AA,60,0,43,646302,2010-11-24,false,12:56:20.000,622, INC: Inconsistencia [PrestacionNoContratada | false]Prestacion no contratada
IT,60,0,21,197562,2010-11-24,true,12:58:55.000,9148,
TR,60,0,1010,504141,2010-11-24,true,12:59:25.000,362,
AA,60,0,5555,646316,2010-11-24,true,12:56:34.000,322,
AA,60,0,40,646319,2010-11-24,true,12:56:37.000,8956,
IT,60,0,27,197568,2010-11-24,true,12:59:10.000,2934,
IT,11,0,526,197571,2010-11-24,true,12:59:20.000,478,
IM,60,0,505,371367,2010-11-24,true,13:01:42.000,437,
TR,60,0,109,504149,2010-11-24,true,12:59:48.000,356,
AA,60,0,5432,646330,2010-11-24,true,12:56:56.000,4774,
IT,60,0,13,197573,2010-11-24,true,12:59:29.000,2858,
IM,60,0,461,371368,2010-11-24,true,13:01:50.000,358,
AA,60,0,5978,646336,2010-11-24,true,12:57:04.000,3659,
AA,60,0,3180,646342,2010-11-24,true,12:57:15.000,1508,
IT,60,0,821,197583,2010-11-24,true,12:59:49.000,340,
IM,60,0,757,371370,2010-11-24,true,13:02:11.000,386,
TR,60,0,112,504156,2010-11-24,true,13:00:16.000,370,
IT,60,0,1208,197586,2010-11-24,true,12:59:55.000,370,
IT,60,0,15,197588,2010-11-24,true,12:59:58.000,1808,
TR,60,0,3795,504162,2010-11-24,true,13:00:26.000,523,
TR,60,0,2811,504163,2010-11-24,true,13:00:27.000,419,
IT,60,0,53,197589,2010-11-24,true,13:00:04.000,2714,
TR,60,0,667,504166,2010-11-24,true,13:00:35.000,328,
AA,60,0,2694,646362,2010-11-24,true,12:57:42.000,779,
TR,60,0,1262,504170,2010-11-24,true,13:00:41.000,325,
IT,60,0,32,197598,2010-11-24,true,13:00:22.000,6083,
IT,60,0,821,197599,2010-11-24,true,13:00:24.000,714,
IT,60,0,32,197600,2010-11-24,true,13:00:27.000,5682,
IT,60,0,821,197602,2010-11-24,true,13:00:29.000,391,
AA,60,0,6910,646383,2010-11-24,true,13:01:03.000,880,
TR,60,0,4025,504180,2010-11-24,true,13:01:08.000,406,
IT,60,0,38,197610,2010-11-24,true,13:00:45.000,1326,
AI,60,0,11,782995,2010-11-24,true,12:58:16.000,390,
IT,60,0,1208,197612,2010-11-24,true,13:00:49.000,408,
IT,60,0,32,197614,2010-11-24,true,13:00:53.000,6099,
TR,60,0,639,504183,2010-11-24,true,13:01:17.000,486,
TR,60,0,290,504184,2010-11-24,true,13:01:17.000,380,
TR,60,0,146,504187,2010-11-24,true,13:01:20.000,383,
TR,60,0,3907,504188,2010-11-24,true,13:01:20.000,404,
TR,60,0,70,504190,2010-11-24,true,13:01:28.000,306,
TR,60,0,2700,504192,2010-11-24,true,13:01:33.000,411,
AA,60,0,720,646402,2010-11-24,true,12:58:42.000,4520,
TR,60,0,495,504194,2010-11-24,true,13:01:40.000,393,
IT,60,0,21,197619,2010-11-24,true,13:01:21.000,9908,
TR,60,0,13,504197,2010-11-24,true,13:01:45.000,429,
IT,60,0,182,197623,2010-11-24,true,13:01:27.000,8978,
IT,60,0,40,197625,2010-11-24,true,13:01:32.000,3004,
TR,60,0,3907,504203,2010-11-24,true,13:01:56.000,437,
IT,60,0,32,197627,2010-11-24,true,13:01:35.000,7053,
IM,60,0,461,371375,2010-11-24,true,13:04:00.000,420,
TR,60,0,2772,504206,2010-11-24,true,13:02:04.000,485,
IM,60,0,420,371376,2010-11-24,true,13:04:01.000,763,
TR,60,0,809,504208,2010-11-24,true,13:02:06.000,936,
TR,60,0,3904,504209,2010-11-24,true,13:02:08.000,504,
AA,60,0,4444,646422,2010-11-24,true,12:59:15.000,494,
IM,60,0,745,371377,2010-11-24,true,13:04:10.000,1517,
TR,60,0,3593,504214,2010-11-24,true,13:02:18.000,481,
AA,60,0,720,646434,2010-11-24,true,12:59:24.000,5083,
IT,60,0,327,197638,2010-11-24,true,13:02:00.000,4374,
TR,60,0,3863,504216,2010-11-24,true,13:02:24.000,555,
IT,60,0,53,197641,2010-11-24,true,13:02:04.000,3293,
TR,60,0,2718,504219,2010-11-24,true,13:02:29.000,570,
AA,60,0,4444,646444,2010-11-24,true,12:59:37.000,380,
IT,60,0,13,197643,2010-11-24,true,13:02:10.000,2454,
TR,60,0,2812,504222,2010-11-24,true,13:02:39.000,901,
IT,60,0,327,197650,2010-11-24,true,13:02:16.000,4207,
TR,60,0,478,504225,2010-11-24,true,13:02:46.000,519,
TR,60,0,397,504226,2010-11-24,true,13:02:48.000,416,
IM,60,0,454,371379,2010-11-24,true,13:04:45.000,471,
IM,60,0,172,371380,2010-11-24,true,13:04:46.000,494,
TR,60,0,2868,504227,2010-11-24,true,13:02:51.000,482,
TR,60,0,2702,504229,2010-11-24,true,13:02:52.000,551,
AA,60,0,4444,646457,2010-11-24,true,13:00:00.000,506,
TR,60,0,3732,504230,2010-11-24,true,13:02:58.000,562,
TR,60,0,38,504233,2010-11-24,true,13:03:01.000,510,
TR,60,0,789,504234,2010-11-24,true,13:03:03.000,423,
TR,60,0,397,504237,2010-11-24,true,13:03:09.000,411,
IM,60,0,366,371381,2010-11-24,true,13:05:07.000,458,
AA,60,0,6910,646467,2010-11-24,true,13:03:06.000,882,
AA,60,0,720,646472,2010-11-24,true,13:00:21.000,4222,
TR,60,0,713,504240,2010-11-24,true,13:03:20.000,371,
IT,60,0,32,197671,2010-11-24,true,13:02:59.000,6451,
IT,60,0,53,197672,2010-11-24,true,13:03:01.000,2495,
AA,60,0,720,646479,2010-11-24,true,13:00:29.000,4169,
IT,60,0,187,197677,2010-11-24,true,13:03:15.000,8549,
IT,60,0,53,197679,2010-11-24,true,13:03:26.000,2486,
IT,60,0,21,197681,2010-11-24,true,13:03:30.000,9639,
IM,60,0,525,371384,2010-11-24,true,13:05:52.000,760,
TR,60,0,2903,504250,2010-11-24,true,13:04:00.000,385,
IT,60,0,51,197685,2010-11-24,true,13:03:40.000,697,
IT,60,0,32,197687,2010-11-24,true,13:03:41.000,7106,
TR,60,0,3781,504255,2010-11-24,true,13:04:07.000,532,
AA,60,0,5978,646515,2010-11-24,true,13:01:10.000,3888,
IM,60,0,24,371386,2010-11-24,true,13:06:04.000,359,
AA,60,0,720,646519,2010-11-24,true,13:01:16.000,4496,
TR,60,0,70,504256,2010-11-24,true,13:04:13.000,345,
IT,60,0,53,197697,2010-11-24,true,13:03:57.000,2577,
AA,60,0,720,646526,2010-11-24,true,13:01:29.000,4033,
TR,60,0,68,504260,2010-11-24,false,13:04:27.000,456, INC: Inconsistencia [SocioNoVigente | false]null
IT,60,0,32,197700,2010-11-24,true,13:04:07.000,12986,
TR,60,0,691,504263,2010-11-24,true,13:04:32.000,413,
IT,60,0,15,197703,2010-11-24,true,13:04:11.000,1932,
IT,60,0,51,197704,2010-11-24,true,13:04:12.000,685,
IM,60,0,197,371389,2010-11-24,true,13:06:33.000,499,
IT,60,0,13,197706,2010-11-24,true,13:04:14.000,2430,
AA,60,0,720,646546,2010-11-24,true,13:01:44.000,4303,
IT,60,0,327,197709,2010-11-24,true,13:04:22.000,4257,
IM,60,0,24,371391,2010-11-24,true,13:06:45.000,343,
IT,60,0,53,197714,2010-11-24,true,13:04:29.000,2909,
TR,60,0,3976,504272,2010-11-24,true,13:04:53.000,403,
TR,60,0,46,504271,2010-11-24,true,13:04:53.000,437,
AA,60,0,3180,646571,2010-11-24,true,13:02:03.000,1601,
AA,60,0,2707,646577,2010-11-24,true,13:02:11.000,354,
TR,60,0,640,504276,2010-11-24,false,13:05:09.000,465, INC: Inconsistencia [SocioNoExistente | false]null
TR,60,0,3250,504279,2010-11-24,true,13:05:15.000,566,
IT,60,0,34,197727,2010-11-24,true,13:04:52.000,21059,
TR,60,0,2916,504281,2010-11-24,true,13:05:18.000,445,
IM,60,0,467,371392,2010-11-24,true,13:07:19.000,553,
AA,60,0,720,646588,2010-11-24,true,13:02:28.000,4247,
AI,60,0,10,783021,2010-11-24,true,13:05:22.000,539,
AA,60,0,3180,646594,2010-11-24,true,13:02:32.000,1604,
IM,60,0,24,371395,2010-11-24,true,13:07:32.000,431,
TR,60,0,2868,504287,2010-11-24,true,13:05:43.000,352,
IM,60,0,108,371396,2010-11-24,true,13:07:40.000,336,
IT,60,0,327,197738,2010-11-24,true,13:05:24.000,4606,
TR,60,0,2689,504291,2010-11-24,true,13:05:48.000,414,
IT,60,0,644,197741,2010-11-24,true,13:05:27.000,5482,
AI,60,0,10,783026,2010-11-24,true,13:05:48.000,504,
IT,60,0,327,197742,2010-11-24,true,13:05:31.000,4204,
